Lab 5/real_backgroundCH2.CSV

Record Length,2.50E+03,,-0.0278,10.12
Sample Interval,2.00E-05,,-0.02778,10.12
Trigger Point,1.39E+03,,-0.02776,10.12
,,,-0.02774,10.12
,,,-0.02772,10.12
,,,-0.0277,10.12
Source,CH2,,-0.02768,10.12
Vertical Units,V,,-0.02766,10.12
Vertical Scale,1.00E+00,,-0.02764,10.12
Vertical Offset,-1.05E+01,,-0.02762,10.12
Horizontal Units,s,,-0.0276,10.12
Horizontal Scale,5.00E-03,,-0.02758,10.12
Pt Fmt,Y,,-0.02756,10.12
Yzero,0.00E+00,,-0.02754,10.12
Probe Atten,1.00E+00,,-0.02752,10.12
Model Number,TBS1102B-EDU,,-0.0275,10.12
Serial Number,C023028,,-0.02748,10.12
Firmware Version,FV:v4.06,,-0.02746,10.12
,,,-0.02744,10.12
,,,-0.02742,10.12
,,,-0.0274,10.12
,,,-0.02738,10.12
,,,-0.02736,10.08
,,,-0.02734,10.12
,,,-0.02732,10.12
,,,-0.0273,10.12
,,,-0.02728,10.08
,,,-0.02726,10.08
,,,-0.02724,10.08
,,,-0.02722,10.08
,,,-0.0272,10.08
,,,-0.02718,10.08
,,,-0.02716,10.08
,,,-0.02714,10.08
,,,-0.02712,10.08
,,,-0.0271,10.08
,,,-0.02708,10.08
,,,-0.02706,10.08
,,,-0.02704,10.08
,,,-0.02702,10.08
,,,-0.027,10.08
,,,-0.02698,10.08
,,,-0.02696,10.08
,,,-0.02694,10.08
,,,-0.02692,10.08
,,,-0.0269,10.08
,,,-0.02688,10.08
,,,-0.02686,10.08
,,,-0.02684,10.08
,,,-0.02682,10.04
,,,-0.0268,10.08
,,,-0.02678,10.04
,,,-0.02676,10.04
,,,-0.02674,10.04
,,,-0.02672,10.08
,,,-0.0267,10.08
,,,-0.02668,10.08
,,,-0.02666,10.04
,,,-0.02664,10.08
,,,-0.02662,10.04
,,,-0.0266,10.04
,,,-0.02658,10.04
,,,-0.02656,10.08
,,,-0.02654,10.08
,,,-0.02652,10.04
,,,-0.0265,10.04
,,,-0.02648,10.04
,,,-0.02646,10.04
,,,-0.02644,10.04
,,,-0.02642,10.04
,,,-0.0264,10.04
,,,-0.02638,10.04
,,,-0.02636,10.04
,,,-0.02634,10.04
,,,-0.02632,10.04
,,,-0.0263,10
,,,-0.02628,10.04
,,,-0.02626,10.04
,,,-0.02624,10.04
,,,-0.02622,10.04
,,,-0.0262,10.04
,,,-0.02618,10.04
,,,-0.02616,10.08
,,,-0.02614,10.04
,,,-0.02612,10.04
,,,-0.0261,10.04
,,,-0.02608,10.04
,,,-0.02606,10.04
,,,-0.02604,10.04
,,,-0.02602,10.04
,,,-0.026,10.04
,,,-0.02598,10.04
,,,-0.02596,10.04
,,,-0.02594,10.04
,,,-0.02592,10.04
,,,-0.0259,10.04
,,,-0.02588,10.04
,,,-0.02586,10.04
,,,-0.02584,10.08
,,,-0.02582,10.08
,,,-0.0258,10.08
,,,-0.02578,10.04
,,,-0.02576,10.04
,,,-0.02574,10.04
,,,-0.02572,10.04
,,,-0.0257,10.08
,,,-0.02568,10.04
,,,-0.02566,10.08
,,,-0.02564,10.08
,,,-0.02562,10.04
,,,-0.0256,10.04
,,,-0.02558,10.04
,,,-0.02556,10.04
,,,-0.02554,10.04
,,,-0.02552,10.04
,,,-0.0255,10.08
,,,-0.02548,10.04
,,,-0.02546,10.04
,,,-0.02544,10.08
,,,-0.02542,10.04
,,,-0.0254,10.04
,,,-0.02538,10.04
,,,-0.02536,10.04
,,,-0.02534,10.08
,,,-0.02532,10.04
,,,-0.0253,10.08
,,,-0.02528,10.08
,,,-0.02526,10.04
,,,-0.02524,10.04
,,,-0.02522,10.04
,,,-0.0252,10.04
,,,-0.02518,10.04
,,,-0.02516,10.04
,,,-0.02514,10.04
,,,-0.02512,10.04
,,,-0.0251,10.04
,,,-0.02508,10.04
,,,-0.02506,10.08
,,,-0.02504,10.04
,,,-0.02502,10.04
,,,-0.025,10.04
,,,-0.02498,10.04
,,,-0.02496,10.04
,,,-0.02494,10.04
,,,-0.02492,10.04
,,,-0.0249,10.04
,,,-0.02488,10.04
,,,-0.02486,10.04
,,,-0.02484,10.04
,,,-0.02482,10.04
,,,-0.0248,10.04
,,,-0.02478,10
,,,-0.02476,10.04
,,,-0.02474,10.04
,,,-0.02472,10.04
,,,-0.0247,10.04
,,,-0.02468,10
,,,-0.02466,10
,,,-0.02464,10.04
,,,-0.02462,10.08
,,,-0.0246,10.12
,,,-0.02458,10.12
,,,-0.02456,10.16
,,,-0.02454,10.2
,,,-0.02452,10.2
,,,-0.0245,10.24
,,,-0.02448,10.28
,,,-0.02446,10.28
,,,-0.02444,10.28
,,,-0.02442,10.32
,,,-0.0244,10.32
,,,-0.02438,10.36
,,,-0.02436,10.32
,,,-0.02434,10.36
,,,-0.02432,10.36
,,,-0.0243,10.4
,,,-0.02428,10.4
,,,-0.02426,10.4
,,,-0.02424,10.4
,,,-0.02422,10.4
,,,-0.0242,10.4
,,,-0.02418,10.4
,,,-0.02416,10.44
,,,-0.02414,10.44
,,,-0.02412,10.44
,,,-0.0241,10.4
,,,-0.02408,10.44
,,,-0.02406,10.4
,,,-0.02404,10.44
,,,-0.02402,10.44
,,,-0.024,10.44
,,,-0.02398,10.48
,,,-0.02396,10.44
,,,-0.02394,10.48
,,,-0.02392,10.44
,,,-0.0239,10.48
,,,-0.02388,10.48
,,,-0.02386,10.44
,,,-0.02384,10.48
,,,-0.02382,10.48
,,,-0.0238,10.48
,,,-0.02378,10.48
,,,-0.02376,10.48
,,,-0.02374,10.44
,,,-0.02372,10.48
,,,-0.0237,10.44
,,,-0.02368,10.44
,,,-0.02366,10.44
,,,-0.02364,10.44
,,,-0.02362,10.4
,,,-0.0236,10.44
,,,-0.02358,10.44
,,,-0.02356,10.4
,,,-0.02354,10.4
,,,-0.02352,10.4
,,,-0.0235,10.4
,,,-0.02348,10.44
,,,-0.02346,10.4
,,,-0.02344,10.4
,,,-0.02342,10.4
,,,-0.0234,10.4
,,,-0.02338,10.4
,,,-0.02336,10.4
,,,-0.02334,10.4
,,,-0.02332,10.4
,,,-0.0233,10.4
,,,-0.02328,10.4
,,,-0.02326,10.4
,,,-0.02324,10.36
,,,-0.02322,10.4
,,,-0.0232,10.36
,,,-0.02318,10.36
,,,-0.02316,10.4
,,,-0.02314,10.4
,,,-0.02312,10.36
,,,-0.0231,10.4
,,,-0.02308,10.36
,,,-0.02306,10.36
,,,-0.02304,10.36
,,,-0.02302,10.36
,,,-0.023,10.36
,,,-0.02298,10.36
,,,-0.02296,10.36
,,,-0.02294,10.36
,,,-0.02292,10.36
,,,-0.0229,10.36
,,,-0.02288,10.36
,,,-0.02286,10.36
,,,-0.02284,10.36
,,,-0.02282,10.32
,,,-0.0228,10.32
,,,-0.02278,10.36
,,,-0.02276,10.36
,,,-0.02274,10.32
,,,-0.02272,10.36
,,,-0.0227,10.32
,,,-0.02268,10.32
,,,-0.02266,10.32
,,,-0.02264,10.32
,,,-0.02262,10.32
,,,-0.0226,10.32
,,,-0.02258,10.32
,,,-0.02256,10.32
,,,-0.02254,10.32
,,,-0.02252,10.32
,,,-0.0225,10.32
,,,-0.02248,10.32
,,,-0.02246,10.32
,,,-0.02244,10.32
,,,-0.02242,10.32
,,,-0.0224,10.32
,,,-0.02238,10.32
,,,-0.02236,10.32
,,,-0.02234,10.32
,,,-0.02232,10.32
,,,-0.0223,10.32
,,,-0.02228,10.32
,,,-0.02226,10.32
,,,-0.02224,10.32
,,,-0.02222,10.32
,,,-0.0222,10.28
,,,-0.02218,10.28
,,,-0.02216,10.28
,,,-0.02214,10.32
,,,-0.02212,10.32
,,,-0.0221,10.32
,,,-0.02208,10.32
,,,-0.02206,10.32
,,,-0.02204,10.32
,,,-0.02202,10.32
,,,-0.022,10.32
,,,-0.02198,10.32
,,,-0.02196,10.32
,,,-0.02194,10.28
,,,-0.02192,10.28
,,,-0.0219,10.28
,,,-0.02188,10.28
,,,-0.02186,10.28
,,,-0.02184,10.28
,,,-0.02182,10.28
,,,-0.0218,10.28
,,,-0.02178,10.28
,,,-0.02176,10.28
,,,-0.02174,10.28
,,,-0.02172,10.28
,,,-0.0217,10.28
,,,-0.02168,10.28
,,,-0.02166,10.28
,,,-0.02164,10.32
,,,-0.02162,10.28
,,,-0.0216,10.28
,,,-0.02158,10.28
,,,-0.02156,10.28
,,,-0.02154,10.24
,,,-0.02152,10.28
,,,-0.0215,10.28
,,,-0.02148,10.28
,,,-0.02146,10.28
,,,-0.02144,10.28
,,,-0.02142,10.28
,,,-0.0214,10.28
,,,-0.02138,10.28
,,,-0.02136,10.24
,,,-0.02134,10.28
,,,-0.02132,10.28
,,,-0.0213,10.24
,,,-0.02128,10.24
,,,-0.02126,10.24
,,,-0.02124,10.28
,,,-0.02122,10.28
,,,-0.0212,10.24
,,,-0.02118,10.24
,,,-0.02116,10.24
,,,-0.02114,10.24
,,,-0.02112,10.24
,,,-0.0211,10.24
,,,-0.02108,10.24
,,,-0.02106,10.24
,,,-0.02104,10.24
,,,-0.02102,10.24
,,,-0.021,10.24
,,,-0.02098,10.2
,,,-0.02096,10.24
,,,-0.02094,10.24
,,,-0.02092,10.24
,,,-0.0209,10.24
,,,-0.02088,10.2
,,,-0.02086,10.2
,,,-0.02084,10.2
,,,-0.02082,10.2
,,,-0.0208,10.2
,,,-0.02078,10.2
,,,-0.02076,10.24
,,,-0.02074,10.2
,,,-0.02072,10.2
,,,-0.0207,10.2
,,,-0.02068,10.2
,,,-0.02066,10.2
,,,-0.02064,10.16
,,,-0.02062,10.16
,,,-0.0206,10.2
,,,-0.02058,10.16
,,,-0.02056,10.16
,,,-0.02054,10.2
,,,-0.02052,10.16
,,,-0.0205,10.16
,,,-0.02048,10.16
,,,-0.02046,10.16
,,,-0.02044,10.12
,,,-0.02042,10.12
,,,-0.0204,10.12
,,,-0.02038,10.16
,,,-0.02036,10.16
,,,-0.02034,10.12
,,,-0.02032,10.12
,,,-0.0203,10.12
,,,-0.02028,10.12
,,,-0.02026,10.12
,,,-0.02024,10.12
,,,-0.02022,10.12
,,,-0.0202,10.08
,,,-0.02018,10.12
,,,-0.02016,10.08
,,,-0.02014,10.12
,,,-0.02012,10.08
,,,-0.0201,10.08
,,,-0.02008,10.08
,,,-0.02006,10.08
,,,-0.02004,10.08
,,,-0.02002,10.08
,,,-0.02,10.08
,,,-0.01998,10.08
,,,-0.01996,10.08
,,,-0.01994,10.08
,,,-0.01992,10.08
,,,-0.0199,10.04
,,,-0.01988,10.08
,,,-0.01986,10.04
,,,-0.01984,10.04
,,,-0.01982,10.04
,,,-0.0198,10
,,,-0.01978,10.04
,,,-0.01976,10
,,,-0.01974,10
,,,-0.01972,10
,,,-0.0197,10
,,,-0.01968,10
,,,-0.01966,10
,,,-0.01964,10
,,,-0.01962,10
,,,-0.0196,9.96
,,,-0.01958,10
,,,-0.01956,9.96
,,,-0.01954,9.96
,,,-0.01952,9.96
,,,-0.0195,9.96
,,,-0.01948,9.96
,,,-0.01946,9.96
,,,-0.01944,9.92
,,,-0.01942,9.92
,,,-0.0194,9.96
,,,-0.01938,9.96
,,,-0.01936,9.92
,,,-0.01934,9.92
,,,-0.01932,9.92
,,,-0.0193,9.92
,,,-0.01928,9.92
,,,-0.01926,9.92
,,,-0.01924,9.88
,,,-0.01922,9.88
,,,-0.0192,9.88
,,,-0.01918,9.88
,,,-0.01916,9.88
,,,-0.01914,9.88
,,,-0.01912,9.88
,,,-0.0191,9.88
,,,-0.01908,9.88
,,,-0.01906,9.84
,,,-0.01904,9.84
,,,-0.01902,9.88
,,,-0.019,9.84
,,,-0.01898,9.84
,,,-0.01896,9.84
,,,-0.01894,9.84
,,,-0.01892,9.84
,,,-0.0189,9.8
,,,-0.01888,9.84
,,,-0.01886,9.8
,,,-0.01884,9.84
,,,-0.01882,9.8
,,,-0.0188,9.8
,,,-0.01878,9.8
,,,-0.01876,9.8
,,,-0.01874,9.8
,,,-0.01872,9.76
,,,-0.0187,9.8
,,,-0.01868,9.76
,,,-0.01866,9.76
,,,-0.01864,9.76
,,,-0.01862,9.8
,,,-0.0186,9.76
,,,-0.01858,9.76
,,,-0.01856,9.76
,,,-0.01854,9.72
,,,-0.01852,9.76
,,,-0.0185,9.76
,,,-0.01848,9.76
,,,-0.01846,9.72
,,,-0.01844,9.76
,,,-0.01842,9.72
,,,-0.0184,9.72
,,,-0.01838,9.72
,,,-0.01836,9.76
,,,-0.01834,9.72
,,,-0.01832,9.72
,,,-0.0183,9.72
,,,-0.01828,9.72
,,,-0.01826,9.72
,,,-0.01824,9.72
,,,-0.01822,9.72
,,,-0.0182,9.72
,,,-0.01818,9.72
,,,-0.01816,9.68
,,,-0.01814,9.68
,,,-0.01812,9.68
,,,-0.0181,9.68
,,,-0.01808,9.68
,,,-0.01806,9.68
,,,-0.01804,9.68
,,,-0.01802,9.68
,,,-0.018,9.68
,,,-0.01798,9.68
,,,-0.01796,9.68
,,,-0.01794,9.68
,,,-0.01792,9.68
,,,-0.0179,9.68
,,,-0.01788,9.64
,,,-0.01786,9.68
,,,-0.01784,9.64
,,,-0.01782,9.64
,,,-0.0178,9.64
,,,-0.01778,9.64
,,,-0.01776,9.64
,,,-0.01774,9.64
,,,-0.01772,9.6
,,,-0.0177,9.6
,,,-0.01768,9.64
,,,-0.01766,9.64
,,,-0.01764,9.6
,,,-0.01762,9.6
,,,-0.0176,9.64
,,,-0.01758,9.6
,,,-0.01756,9.6
,,,-0.01754,9.64
,,,-0.01752,9.6
,,,-0.0175,9.6
,,,-0.01748,9.6
,,,-0.01746,9.6
,,,-0.01744,9.6
,,,-0.01742,9.6
,,,-0.0174,9.6
,,,-0.01738,9.6
,,,-0.01736,9.6
,,,-0.01734,9.56
,,,-0.01732,9.6
,,,-0.0173,9.56
,,,-0.01728,9.56
,,,-0.01726,9.56
,,,-0.01724,9.6
,,,-0.01722,9.56
,,,-0.0172,9.56
,,,-0.01718,9.56
,,,-0.01716,9.6
,,,-0.01714,9.56
,,,-0.01712,9.52
,,,-0.0171,9.56
,,,-0.01708,9.56
,,,-0.01706,9.6
,,,-0.01704,9.56
,,,-0.01702,9.56
,,,-0.017,9.56
,,,-0.01698,9.56
,,,-0.01696,9.56
,,,-0.01694,9.56
,,,-0.01692,9.52
,,,-0.0169,9.56
,,,-0.01688,9.56
,,,-0.01686,9.56
,,,-0.01684,9.56
,,,-0.01682,9.52
,,,-0.0168,9.52
,,,-0.01678,9.52
,,,-0.01676,9.52
,,,-0.01674,9.48
,,,-0.01672,9.48
,,,-0.0167,9.44
,,,-0.01668,9.44
,,,-0.01666,9.44
,,,-0.01664,9.44
,,,-0.01662,9.44
,,,-0.0166,9.44
,,,-0.01658,9.44
,,,-0.01656,9.44
,,,-0.01654,9.4
,,,-0.01652,9.4
,,,-0.0165,9.4
,,,-0.01648,9.4
,,,-0.01646,9.4
,,,-0.01644,9.4
,,,-0.01642,9.36
,,,-0.0164,9.36
,,,-0.01638,9.36
,,,-0.01636,9.36
,,,-0.01634,9.36
,,,-0.01632,9.36
,,,-0.0163,9.36
,,,-0.01628,9.36
,,,-0.01626,9.36
,,,-0.01624,9.36
,,,-0.01622,9.36
,,,-0.0162,9.36
,,,-0.01618,9.36
,,,-0.01616,9.36
,,,-0.01614,9.36
,,,-0.01612,9.36
,,,-0.0161,9.36
,,,-0.01608,9.36
,,,-0.01606,9.36
,,,-0.01604,9.36
,,,-0.01602,9.36
,,,-0.016,9.36
,,,-0.01598,9.36
,,,-0.01596,9.36
,,,-0.01594,9.36
,,,-0.01592,9.36
,,,-0.0159,9.4
,,,-0.01588,9.4
,,,-0.01586,9.36
,,,-0.01584,9.36
,,,-0.01582,9.36
,,,-0.0158,9.4
,,,-0.01578,9.4
,,,-0.01576,9.4
,,,-0.01574,9.4
,,,-0.01572,9.4
,,,-0.0157,9.36
,,,-0.01568,9.4
,,,-0.01566,9.4
,,,-0.01564,9.4
,,,-0.01562,9.36
,,,-0.0156,9.36
,,,-0.01558,9.4
,,,-0.01556,9.36
,,,-0.01554,9.4
,,,-0.01552,9.36
,,,-0.0155,9.4
,,,-0.01548,9.4
,,,-0.01546,9.4
,,,-0.01544,9.4
,,,-0.01542,9.4
,,,-0.0154,9.4
,,,-0.01538,9.4
,,,-0.01536,9.4
,,,-0.01534,9.4
,,,-0.01532,9.4
,,,-0.0153,9.4
,,,-0.01528,9.4
,,,-0.01526,9.44
,,,-0.01524,9.4
,,,-0.01522,9.4
,,,-0.0152,9.4
,,,-0.01518,9.4
,,,-0.01516,9.4
,,,-0.01514,9.4
,,,-0.01512,9.4
,,,-0.0151,9.4
,,,-0.01508,9.4
,,,-0.01506,9.4
,,,-0.01504,9.4
,,,-0.01502,9.44
,,,-0.015,9.44
,,,-0.01498,9.4
,,,-0.01496,9.4
,,,-0.01494,9.44
,,,-0.01492,9.44
,,,-0.0149,9.44
,,,-0.01488,9.44
,,,-0.01486,9.44
,,,-0.01484,9.4
,,,-0.01482,9.44
,,,-0.0148,9.44
,,,-0.01478,9.44
,,,-0.01476,9.44
,,,-0.01474,9.44
,,,-0.01472,9.44
,,,-0.0147,9.44
,,,-0.01468,9.44
,,,-0.01466,9.44
,,,-0.01464,9.44
,,,-0.01462,9.44
,,,-0.0146,9.44
,,,-0.01458,9.44
,,,-0.01456,9.44
,,,-0.01454,9.44
,,,-0.01452,9.44
,,,-0.0145,9.44
,,,-0.01448,9.44
,,,-0.01446,9.44
,,,-0.01444,9.44
,,,-0.01442,9.44
,,,-0.0144,9.44
,,,-0.01438,9.44
,,,-0.01436,9.44
,,,-0.01434,9.44
,,,-0.01432,9.44
,,,-0.0143,9.44
,,,-0.01428,9.44
,,,-0.01426,9.44
,,,-0.01424,9.48
,,,-0.01422,9.44
,,,-0.0142,9.44
,,,-0.01418,9.44
,,,-0.01416,9.48
,,,-0.01414,9.44
,,,-0.01412,9.44
,,,-0.0141,9.44
,,,-0.01408,9.44
,,,-0.01406,9.44
,,,-0.01404,9.44
,,,-0.01402,9.44
,,,-0.014,9.44
,,,-0.01398,9.44
,,,-0.01396,9.44
,,,-0.01394,9.44
,,,-0.01392,9.44
,,,-0.0139,9.44
,,,-0.01388,9.48
,,,-0.01386,9.44
,,,-0.01384,9.44
,,,-0.01382,9.48
,,,-0.0138,9.44
,,,-0.01378,9.44
,,,-0.01376,9.44
,,,-0.01374,9.48
,,,-0.01372,9.44
,,,-0.0137,9.48
,,,-0.01368,9.44
,,,-0.01366,9.44
,,,-0.01364,9.44
,,,-0.01362,9.44
,,,-0.0136,9.48
,,,-0.01358,9.44
,,,-0.01356,9.44
,,,-0.01354,9.44
,,,-0.01352,9.44
,,,-0.0135,9.44
,,,-0.01348,9.44
,,,-0.01346,9.44
,,,-0.01344,9.48
,,,-0.01342,9.44
,,,-0.0134,9.44
,,,-0.01338,9.44
,,,-0.01336,9.44
,,,-0.01334,9.48
,,,-0.01332,9.44
,,,-0.0133,9.48
,,,-0.01328,9.48
,,,-0.01326,9.44
,,,-0.01324,9.48
,,,-0.01322,9.44
,,,-0.0132,9.48
,,,-0.01318,9.48
,,,-0.01316,9.48
,,,-0.01314,9.48
,,,-0.01312,9.48
,,,-0.0131,9.48
,,,-0.01308,9.48
,,,-0.01306,9.48
,,,-0.01304,9.48
,,,-0.01302,9.48
,,,-0.013,9.48
,,,-0.01298,9.48
,,,-0.01296,9.48
,,,-0.01294,9.48
,,,-0.01292,9.48
,,,-0.0129,9.48
,,,-0.01288,9.48
,,,-0.01286,9.48
,,,-0.01284,9.48
,,,-0.01282,9.48
,,,-0.0128,9.48
,,,-0.01278,9.48
,,,-0.01276,9.48
,,,-0.01274,9.52
,,,-0.01272,9.48
,,,-0.0127,9.48
,,,-0.01268,9.52
,,,-0.01266,9.52
,,,-0.01264,9.48
,,,-0.01262,9.48
,,,-0.0126,9.52
,,,-0.01258,9.52
,,,-0.01256,9.52
,,,-0.01254,9.48
,,,-0.01252,9.48
,,,-0.0125,9.48
,,,-0.01248,9.48
,,,-0.01246,9.52
,,,-0.01244,9.52
,,,-0.01242,9.52
,,,-0.0124,9.52
,,,-0.01238,9.52
,,,-0.01236,9.52
,,,-0.01234,9.52
,,,-0.01232,9.56
,,,-0.0123,9.52
,,,-0.01228,9.52
,,,-0.01226,9.56
,,,-0.01224,9.56
,,,-0.01222,9.56
,,,-0.0122,9.56
,,,-0.01218,9.56
,,,-0.01216,9.56
,,,-0.01214,9.56
,,,-0.01212,9.56
,,,-0.0121,9.56
,,,-0.01208,9.56
,,,-0.01206,9.56
,,,-0.01204,9.56
,,,-0.01202,9.56
,,,-0.012,9.56
,,,-0.01198,9.56
,,,-0.01196,9.56
,,,-0.01194,9.56
,,,-0.01192,9.56
,,,-0.0119,9.56
,,,-0.01188,9.6
,,,-0.01186,9.6
,,,-0.01184,9.6
,,,-0.01182,9.6
,,,-0.0118,9.56
,,,-0.01178,9.6
,,,-0.01176,9.6
,,,-0.01174,9.6
,,,-0.01172,9.6
,,,-0.0117,9.6
,,,-0.01168,9.64
,,,-0.01166,9.6
,,,-0.01164,9.64
,,,-0.01162,9.6
,,,-0.0116,9.64
,,,-0.01158,9.64
,,,-0.01156,9.64
,,,-0.01154,9.64
,,,-0.01152,9.6
,,,-0.0115,9.64
,,,-0.01148,9.64
,,,-0.01146,9.64
,,,-0.01144,9.64
,,,-0.01142,9.68
,,,-0.0114,9.68
,,,-0.01138,9.64
,,,-0.01136,9.64
,,,-0.01134,9.64
,,,-0.01132,9.68
,,,-0.0113,9.68
,,,-0.01128,9.64
,,,-0.01126,9.68
,,,-0.01124,9.68
,,,-0.01122,9.68
,,,-0.0112,9.68
,,,-0.01118,9.72
,,,-0.01116,9.68
,,,-0.01114,9.68
,,,-0.01112,9.68
,,,-0.0111,9.72
,,,-0.01108,9.72
,,,-0.01106,9.72
,,,-0.01104,9.72
,,,-0.01102,9.72
,,,-0.011,9.72
,,,-0.01098,9.72
,,,-0.01096,9.72
,,,-0.01094,9.72
,,,-0.01092,9.72
,,,-0.0109,9.72
,,,-0.01088,9.72
,,,-0.01086,9.72
,,,-0.01084,9.72
,,,-0.01082,9.72
,,,-0.0108,9.72
,,,-0.01078,9.76
,,,-0.01076,9.76
,,,-0.01074,9.76
,,,-0.01072,9.72
,,,-0.0107,9.76
,,,-0.01068,9.72
,,,-0.01066,9.76
,,,-0.01064,9.76
,,,-0.01062,9.76
,,,-0.0106,9.76
,,,-0.01058,9.76
,,,-0.01056,9.76
,,,-0.01054,9.76
,,,-0.01052,9.8
,,,-0.0105,9.8
,,,-0.01048,9.8
,,,-0.01046,9.8
,,,-0.01044,9.8
,,,-0.01042,9.76
,,,-0.0104,9.8
,,,-0.01038,9.8
,,,-0.01036,9.76
,,,-0.01034,9.8
,,,-0.01032,9.76
,,,-0.0103,9.8
,,,-0.01028,9.8
,,,-0.01026,9.8
,,,-0.01024,9.8
,,,-0.01022,9.84
,,,-0.0102,9.84
,,,-0.01018,9.8
,,,-0.01016,9.84
,,,-0.01014,9.8
,,,-0.01012,9.84
,,,-0.0101,9.8
,,,-0.01008,9.84
,,,-0.01006,9.84
,,,-0.01004,9.84
,,,-0.01002,9.8
,,,-0.01,9.84
,,,-0.00998,9.84
,,,-0.00996,9.84
,,,-0.00994,9.84
,,,-0.00992,9.84
,,,-0.0099,9.84
,,,-0.00988,9.84
,,,-0.00986,9.88
,,,-0.00984,9.84
,,,-0.00982,9.88
,,,-0.0098,9.84
,,,-0.00978,9.84
,,,-0.00976,9.88
,,,-0.00974,9.84
,,,-0.00972,9.88
,,,-0.0097,9.88
,,,-0.00968,9.84
,,,-0.00966,9.88
,,,-0.00964,9.84
,,,-0.00962,9.88
,,,-0.0096,9.88
,,,-0.00958,9.88
,,,-0.00956,9.84
,,,-0.00954,9.88
,,,-0.00952,9.88
,,,-0.0095,9.88
,,,-0.00948,9.88
,,,-0.00946,9.88
,,,-0.00944,9.88
,,,-0.00942,9.88
,,,-0.0094,9.88
,,,-0.00938,9.88
,,,-0.00936,9.88
,,,-0.00934,9.84
,,,-0.00932,9.88
,,,-0.0093,9.88
,,,-0.00928,9.88
,,,-0.00926,9.88
,,,-0.00924,9.88
,,,-0.00922,9.88
,,,-0.0092,9.88
,,,-0.00918,9.88
,,,-0.00916,9.88
,,,-0.00914,9.88
,,,-0.00912,9.88
,,,-0.0091,9.88
,,,-0.00908,9.88
,,,-0.00906,9.88
,,,-0.00904,9.88
,,,-0.00902,9.88
,,,-0.009,9.88
,,,-0.00898,9.88
,,,-0.00896,9.88
,,,-0.00894,9.84
,,,-0.00892,9.88
,,,-0.0089,9.88
,,,-0.00888,9.88
,,,-0.00886,9.92
,,,-0.00884,9.88
,,,-0.00882,9.88
,,,-0.0088,9.92
,,,-0.00878,9.88
,,,-0.00876,9.88
,,,-0.00874,9.88
,,,-0.00872,9.92
,,,-0.0087,9.88
,,,-0.00868,9.88
,,,-0.00866,9.88
,,,-0.00864,9.88
,,,-0.00862,9.88
,,,-0.0086,9.88
,,,-0.00858,9.88
,,,-0.00856,9.88
,,,-0.00854,9.88
,,,-0.00852,9.88
,,,-0.0085,9.88
,,,-0.00848,9.88
,,,-0.00846,9.88
,,,-0.00844,9.88
,,,-0.00842,9.88
,,,-0.0084,9.88
,,,-0.00838,9.84
,,,-0.00836,9.88
,,,-0.00834,9.88
,,,-0.00832,9.88
,,,-0.0083,9.88
,,,-0.00828,9.84
,,,-0.00826,9.88
,,,-0.00824,9.88
,,,-0.00822,9.84
,,,-0.0082,9.84
,,,-0.00818,9.84
,,,-0.00816,9.88
,,,-0.00814,9.88
,,,-0.00812,9.84
,,,-0.0081,9.88
,,,-0.00808,9.88
,,,-0.00806,9.88
,,,-0.00804,9.84
,,,-0.00802,9.84
,,,-0.008,9.84
,,,-0.00798,9.84
,,,-0.00796,9.88
,,,-0.00794,9.84
,,,-0.00792,9.84
,,,-0.0079,9.84
,,,-0.00788,9.84
,,,-0.00786,9.8
,,,-0.00784,9.84
,,,-0.00782,9.84
,,,-0.0078,9.88
,,,-0.00778,9.84
,,,-0.00776,9.84
,,,-0.00774,9.84
,,,-0.00772,9.84
,,,-0.0077,9.84
,,,-0.00768,9.84
,,,-0.00766,9.92
,,,-0.00764,9.96
,,,-0.00762,10
,,,-0.0076,10.04
,,,-0.00758,10.08
,,,-0.00756,10.12
,,,-0.00754,10.2
,,,-0.00752,10.2
,,,-0.0075,10.24
,,,-0.00748,10.28
,,,-0.00746,10.32
,,,-0.00744,10.32
,,,-0.00742,10.36
,,,-0.0074,10.36
,,,-0.00738,10.4
,,,-0.00736,10.4
,,,-0.00734,10.4
,,,-0.00732,10.44
,,,-0.0073,10.52
,,,-0.00728,10.48
,,,-0.00726,10.52
,,,-0.00724,10.52
,,,-0.00722,10.56
,,,-0.0072,10.56
,,,-0.00718,10.56
,,,-0.00716,10.56
,,,-0.00714,10.6
,,,-0.00712,10.6
,,,-0.0071,10.6
,,,-0.00708,10.64
,,,-0.00706,10.64
,,,-0.00704,10.64
,,,-0.00702,10.64
,,,-0.007,10.68
,,,-0.00698,10.68
,,,-0.00696,10.68
,,,-0.00694,10.68
,,,-0.00692,10.72
,,,-0.0069,10.72
,,,-0.00688,10.72
,,,-0.00686,10.72
,,,-0.00684,10.76
,,,-0.00682,10.76
,,,-0.0068,10.76
,,,-0.00678,10.76
,,,-0.00676,10.76
,,,-0.00674,10.76
,,,-0.00672,10.8
,,,-0.0067,10.8
,,,-0.00668,10.8
,,,-0.00666,10.8
,,,-0.00664,10.8
,,,-0.00662,10.84
,,,-0.0066,10.84
,,,-0.00658,10.84
,,,-0.00656,10.84
,,,-0.00654,10.84
,,,-0.00652,10.84
,,,-0.0065,10.84
,,,-0.00648,10.84
,,,-0.00646,10.84
,,,-0.00644,10.88
,,,-0.00642,10.88
,,,-0.0064,10.88
,,,-0.00638,10.88
,,,-0.00636,10.88
,,,-0.00634,10.92
,,,-0.00632,10.92
,,,-0.0063,10.92
,,,-0.00628,10.92
,,,-0.00626,10.92
,,,-0.00624,10.92
,,,-0.00622,10.92
,,,-0.0062,10.96
,,,-0.00618,10.96
,,,-0.00616,10.92
,,,-0.00614,10.96
,,,-0.00612,10.96
,,,-0.0061,10.96
,,,-0.00608,10.96
,,,-0.00606,11
,,,-0.00604,10.96
,,,-0.00602,10.96
,,,-0.006,10.96
,,,-0.00598,10.96
,,,-0.00596,11
,,,-0.00594,10.96
,,,-0.00592,11
,,,-0.0059,11
,,,-0.00588,11
,,,-0.00586,10.96
,,,-0.00584,11
,,,-0.00582,11.04
,,,-0.0058,11
,,,-0.00578,11.04
,,,-0.00576,11
,,,-0.00574,11
,,,-0.00572,11
,,,-0.0057,11.04
,,,-0.00568,11.04
,,,-0.00566,11.04
,,,-0.00564,11.04
,,,-0.00562,11.04
,,,-0.0056,11.04
,,,-0.00558,11.04
,,,-0.00556,11.04
,,,-0.00554,11.04
,,,-0.00552,11.04
,,,-0.0055,11.08
,,,-0.00548,11.08
,,,-0.00546,11.04
,,,-0.00544,11.08
,,,-0.00542,11.08
,,,-0.0054,11.08
,,,-0.00538,11.08
,,,-0.00536,11.08
,,,-0.00534,11.12
,,,-0.00532,11.12
,,,-0.0053,11.08
,,,-0.00528,11.12
,,,-0.00526,11.12
,,,-0.00524,11.08
,,,-0.00522,11.08
,,,-0.0052,11.12
,,,-0.00518,11.08
,,,-0.00516,11.12
,,,-0.00514,11.12
,,,-0.00512,11.08
,,,-0.0051,11.12
,,,-0.00508,11.08
,,,-0.00506,11.12
,,,-0.00504,11.12
,,,-0.00502,11.12
,,,-0.005,11.12
,,,-0.00498,11.16
,,,-0.00496,11.12
,,,-0.00494,11.12
,,,-0.00492,11.12
,,,-0.0049,11.12
,,,-0.00488,11.12
,,,-0.00486,11.12
,,,-0.00484,11.16
,,,-0.00482,11.12
,,,-0.0048,11.12
,,,-0.00478,11.16
,,,-0.00476,11.12
,,,-0.00474,11.12
,,,-0.00472,11.12
