Lab 7/lock.CSV

Record Length,2.50E+03,,-0.1178,0.082,time to ramp up,0.00E+00,0.00E+00,x-axis: H ,8.20E-04
Sample Interval,1.00E-04,,-0.1177,0.0828,0.25,2.50E-06,6.21E+05,y-axis:J,8.28E-04
Trigger Point,1.18E+03,,-0.1176,0.0824,,5.00E-06,1.24E+06,,8.24E-04
,,,-0.1175,0.082,,7.50E-06,1.86E+06,,8.20E-04
,,,-0.1174,0.0824,,1.00E-05,2.48E+06,,8.24E-04
,,,-0.1173,0.0824,,1.25E-05,3.11E+06,,8.24E-04
Source,CH1,,-0.1172,0.082,,1.50E-05,3.73E+06,,8.20E-04
Vertical Units,V,,-0.1171,0.0816,,1.75E-05,4.35E+06,,8.16E-04
Vertical Scale,1.00E-02,,-0.117,0.0828,,2.00E-05,4.97E+06,,8.28E-04
Vertical Offset,-9.44E-02,,-0.1169,0.0824,,2.25E-05,5.59E+06,,8.24E-04
Horizontal Units,s,,-0.1168,0.0824,,2.50E-05,6.21E+06,,8.24E-04
Horizontal Scale,2.50E-02,,-0.1167,0.0824,,2.75E-05,6.83E+06,,8.24E-04
Pt Fmt,Y,,-0.1166,0.0816,,3.00E-05,7.45E+06,,8.16E-04
Yzero,0.00E+00,,-0.1165,0.0812,,3.25E-05,8.07E+06,,8.12E-04
Probe Atten,1.00E+00,,-0.1164,0.0824,,3.50E-05,8.70E+06,,8.24E-04
Model Number,TBS1102B-EDU,,-0.1163,0.0824,,3.75E-05,9.32E+06,,8.24E-04
Serial Number,C023028,,-0.1162,0.082,,4.00E-05,9.94E+06,,8.20E-04
Firmware Version,FV:v4.06,,-0.1161,0.0824,,4.25E-05,1.06E+07,,8.24E-04
,,,-0.116,0.0824,,4.50E-05,1.12E+07,,8.24E-04
,,,-0.1159,0.0812,,4.75E-05,1.18E+07,,8.12E-04
,,,-0.1158,0.0816,,5.00E-05,1.24E+07,,8.16E-04
,,,-0.1157,0.0824,,5.25E-05,1.30E+07,,8.24E-04
,,,-0.1156,0.0828,,5.50E-05,1.37E+07,,8.28E-04
,,,-0.1155,0.0824,,5.75E-05,1.43E+07,,8.24E-04
,,,-0.1154,0.0832,,6.00E-05,1.49E+07,,8.32E-04
,,,-0.1153,0.0828,,6.25E-05,1.55E+07,,8.28E-04
,,,-0.1152,0.082,,6.50E-05,1.61E+07,,8.20E-04
,,,-0.1151,0.0824,,6.75E-05,1.68E+07,,8.24E-04
,,,-0.115,0.0828,,7.00E-05,1.74E+07,,8.28E-04
,,,-0.1149,0.0812,,7.25E-05,1.80E+07,,8.12E-04
,,,-0.1148,0.082,,7.50E-05,1.86E+07,,8.20E-04
,,,-0.1147,0.0816,,7.75E-05,1.93E+07,,8.16E-04
,,,-0.1146,0.0812,,8.00E-05,1.99E+07,,8.12E-04
,,,-0.1145,0.0824,,8.25E-05,2.05E+07,,8.24E-04
,,,-0.1144,0.082,,8.50E-05,2.11E+07,,8.20E-04
,,,-0.1143,0.0824,,8.75E-05,2.17E+07,,8.24E-04
,,,-0.1142,0.0816,,9.00E-05,2.24E+07,,8.16E-04
,,,-0.1141,0.0828,,9.25E-05,2.30E+07,,8.28E-04
,,,-0.114,0.082,,9.50E-05,2.36E+07,,8.20E-04
,,,-0.1139,0.082,,9.75E-05,2.42E+07,,8.20E-04
,,,-0.1138,0.082,,1.00E-04,2.48E+07,,8.20E-04
,,,-0.1137,0.082,,1.03E-04,2.55E+07,,8.20E-04
,,,-0.1136,0.082,,1.05E-04,2.61E+07,,8.20E-04
,,,-0.1135,0.0816,,1.08E-04,2.67E+07,,8.16E-04
,,,-0.1134,0.082,,1.10E-04,2.73E+07,,8.20E-04
,,,-0.1133,0.082,,1.13E-04,2.80E+07,,8.20E-04
,,,-0.1132,0.082,,1.15E-04,2.86E+07,,8.20E-04
,,,-0.1131,0.0824,,1.18E-04,2.92E+07,,8.24E-04
,,,-0.113,0.0828,,1.20E-04,2.98E+07,,8.28E-04
,,,-0.1129,0.082,,1.23E-04,3.04E+07,,8.20E-04
,,,-0.1128,0.082,,1.25E-04,3.11E+07,,8.20E-04
,,,-0.1127,0.0816,,1.28E-04,3.17E+07,,8.16E-04
,,,-0.1126,0.0828,,1.30E-04,3.23E+07,,8.28E-04
,,,-0.1125,0.0816,,1.33E-04,3.29E+07,,8.16E-04
,,,-0.1124,0.0816,,1.35E-04,3.35E+07,,8.16E-04
,,,-0.1123,0.0824,,1.38E-04,3.42E+07,,8.24E-04
,,,-0.1122,0.0824,,1.40E-04,3.48E+07,,8.24E-04
,,,-0.1121,0.0824,,1.43E-04,3.54E+07,,8.24E-04
,,,-0.112,0.082,,1.45E-04,3.60E+07,,8.20E-04
,,,-0.1119,0.082,,1.48E-04,3.66E+07,,8.20E-04
,,,-0.1118,0.0824,,1.50E-04,3.73E+07,,8.24E-04
,,,-0.1117,0.0816,,1.53E-04,3.79E+07,,8.16E-04
,,,-0.1116,0.0816,,1.55E-04,3.85E+07,,8.16E-04
,,,-0.1115,0.082,,1.58E-04,3.91E+07,,8.20E-04
,,,-0.1114,0.0816,,1.60E-04,3.98E+07,,8.16E-04
,,,-0.1113,0.0816,,1.63E-04,4.04E+07,,8.16E-04
,,,-0.1112,0.0812,,1.65E-04,4.10E+07,,8.12E-04
,,,-0.1111,0.0812,,1.68E-04,4.16E+07,,8.12E-04
,,,-0.111,0.0816,,1.70E-04,4.22E+07,,8.16E-04
,,,-0.1109,0.0824,,1.73E-04,4.29E+07,,8.24E-04
,,,-0.1108,0.0836,,1.75E-04,4.35E+07,,8.36E-04
,,,-0.1107,0.0828,,1.78E-04,4.41E+07,,8.28E-04
,,,-0.1106,0.0824,,1.80E-04,4.47E+07,,8.24E-04
,,,-0.1105,0.0824,,1.83E-04,4.53E+07,,8.24E-04
,,,-0.1104,0.0808,,1.85E-04,4.60E+07,,8.08E-04
,,,-0.1103,0.0812,,1.88E-04,4.66E+07,,8.12E-04
,,,-0.1102,0.0816,,1.90E-04,4.72E+07,,8.16E-04
,,,-0.1101,0.0816,,1.93E-04,4.78E+07,,8.16E-04
,,,-0.11,0.0812,,1.95E-04,4.84E+07,,8.12E-04
,,,-0.1099,0.0824,,1.98E-04,4.91E+07,,8.24E-04
,,,-0.1098,0.0816,,2.00E-04,4.97E+07,,8.16E-04
,,,-0.1097,0.0824,,2.03E-04,5.03E+07,,8.24E-04
,,,-0.1096,0.0824,,2.05E-04,5.09E+07,,8.24E-04
,,,-0.1095,0.0812,,2.08E-04,5.16E+07,,8.12E-04
,,,-0.1094,0.082,,2.10E-04,5.22E+07,,8.20E-04
,,,-0.1093,0.0824,,2.13E-04,5.28E+07,,8.24E-04
,,,-0.1092,0.0824,,2.15E-04,5.34E+07,,8.24E-04
,,,-0.1091,0.082,,2.18E-04,5.40E+07,,8.20E-04
,,,-0.109,0.082,,2.20E-04,5.47E+07,,8.20E-04
,,,-0.1089,0.0824,,2.23E-04,5.53E+07,,8.24E-04
,,,-0.1088,0.0824,,2.25E-04,5.59E+07,,8.24E-04
,,,-0.1087,0.0824,,2.28E-04,5.65E+07,,8.24E-04
,,,-0.1086,0.0816,,2.30E-04,5.71E+07,,8.16E-04
,,,-0.1085,0.082,,2.33E-04,5.78E+07,,8.20E-04
,,,-0.1084,0.082,,2.35E-04,5.84E+07,,8.20E-04
,,,-0.1083,0.082,,2.38E-04,5.90E+07,,8.20E-04
,,,-0.1082,0.0824,,2.40E-04,5.96E+07,,8.24E-04
,,,-0.1081,0.0812,,2.43E-04,6.03E+07,,8.12E-04
,,,-0.108,0.0832,,2.45E-04,6.09E+07,,8.32E-04
,,,-0.1079,0.0824,,2.48E-04,6.15E+07,,8.24E-04
,,,-0.1078,0.0824,,2.50E-04,6.21E+07,,8.24E-04
,,,-0.1077,0.0824,,2.53E-04,6.27E+07,,8.24E-04
,,,-0.1076,0.082,,2.55E-04,6.34E+07,,8.20E-04
,,,-0.1075,0.0812,,2.58E-04,6.40E+07,,8.12E-04
,,,-0.1074,0.082,,2.60E-04,6.46E+07,,8.20E-04
,,,-0.1073,0.0828,,2.63E-04,6.52E+07,,8.28E-04
,,,-0.1072,0.0828,,2.65E-04,6.58E+07,,8.28E-04
,,,-0.1071,0.082,,2.68E-04,6.65E+07,,8.20E-04
,,,-0.107,0.0824,,2.70E-04,6.71E+07,,8.24E-04
,,,-0.1069,0.082,,2.73E-04,6.77E+07,,8.20E-04
,,,-0.1068,0.082,,2.75E-04,6.83E+07,,8.20E-04
,,,-0.1067,0.082,,2.78E-04,6.89E+07,,8.20E-04
,,,-0.1066,0.0832,,2.80E-04,6.96E+07,,8.32E-04
,,,-0.1065,0.0812,,2.83E-04,7.02E+07,,8.12E-04
,,,-0.1064,0.0828,,2.85E-04,7.08E+07,,8.28E-04
,,,-0.1063,0.082,,2.88E-04,7.14E+07,,8.20E-04
,,,-0.1062,0.0816,,2.90E-04,7.21E+07,,8.16E-04
,,,-0.1061,0.0828,,2.93E-04,7.27E+07,,8.28E-04
,,,-0.106,0.0828,,2.95E-04,7.33E+07,,8.28E-04
,,,-0.1059,0.0816,,2.98E-04,7.39E+07,,8.16E-04
,,,-0.1058,0.0824,,3.00E-04,7.45E+07,,8.24E-04
,,,-0.1057,0.0816,,3.03E-04,7.52E+07,,8.16E-04
,,,-0.1056,0.0824,,3.05E-04,7.58E+07,,8.24E-04
,,,-0.1055,0.0824,,3.08E-04,7.64E+07,,8.24E-04
,,,-0.1054,0.0824,,3.10E-04,7.70E+07,,8.24E-04
,,,-0.1053,0.0824,,3.13E-04,7.76E+07,,8.24E-04
,,,-0.1052,0.0824,,3.15E-04,7.83E+07,,8.24E-04
,,,-0.1051,0.0824,,3.18E-04,7.89E+07,,8.24E-04
,,,-0.105,0.0824,,3.20E-04,7.95E+07,,8.24E-04
,,,-0.1049,0.0824,,3.23E-04,8.01E+07,,8.24E-04
,,,-0.1048,0.0824,,3.25E-04,8.07E+07,,8.24E-04
,,,-0.1047,0.082,,3.28E-04,8.14E+07,,8.20E-04
,,,-0.1046,0.0824,,3.30E-04,8.20E+07,,8.24E-04
,,,-0.1045,0.0824,,3.33E-04,8.26E+07,,8.24E-04
,,,-0.1044,0.082,,3.35E-04,8.32E+07,,8.20E-04
,,,-0.1043,0.0824,,3.38E-04,8.39E+07,,8.24E-04
,,,-0.1042,0.082,,3.40E-04,8.45E+07,,8.20E-04
,,,-0.1041,0.0816,,3.43E-04,8.51E+07,,8.16E-04
,,,-0.104,0.0812,,3.45E-04,8.57E+07,,8.12E-04
,,,-0.1039,0.0816,,3.48E-04,8.63E+07,,8.16E-04
,,,-0.1038,0.0812,,3.50E-04,8.70E+07,,8.12E-04
,,,-0.1037,0.082,,3.53E-04,8.76E+07,,8.20E-04
,,,-0.1036,0.0824,,3.55E-04,8.82E+07,,8.24E-04
,,,-0.1035,0.0824,,3.58E-04,8.88E+07,,8.24E-04
,,,-0.1034,0.082,,3.60E-04,8.94E+07,,8.20E-04
,,,-0.1033,0.0828,,3.63E-04,9.01E+07,,8.28E-04
,,,-0.1032,0.0816,,3.65E-04,9.07E+07,,8.16E-04
,,,-0.1031,0.0816,,3.68E-04,9.13E+07,,8.16E-04
,,,-0.103,0.0824,,3.70E-04,9.19E+07,,8.24E-04
,,,-0.1029,0.0816,,3.73E-04,9.26E+07,,8.16E-04
,,,-0.1028,0.082,,3.75E-04,9.32E+07,,8.20E-04
,,,-0.1027,0.082,,3.78E-04,9.38E+07,,8.20E-04
,,,-0.1026,0.0808,,3.80E-04,9.44E+07,,8.08E-04
,,,-0.1025,0.0816,,3.83E-04,9.50E+07,,8.16E-04
,,,-0.1024,0.0812,,3.85E-04,9.57E+07,,8.12E-04
,,,-0.1023,0.082,,3.88E-04,9.63E+07,,8.20E-04
,,,-0.1022,0.0816,,3.90E-04,9.69E+07,,8.16E-04
,,,-0.1021,0.0812,,3.93E-04,9.75E+07,,8.12E-04
,,,-0.102,0.0816,,3.95E-04,9.81E+07,,8.16E-04
,,,-0.1019,0.0816,,3.98E-04,9.88E+07,,8.16E-04
,,,-0.1018,0.082,,4.00E-04,9.94E+07,,8.20E-04
,,,-0.1017,0.0816,,4.03E-04,1.00E+08,,8.16E-04
,,,-0.1016,0.0816,,4.05E-04,1.01E+08,,8.16E-04
,,,-0.1015,0.082,,4.08E-04,1.01E+08,,8.20E-04
,,,-0.1014,0.082,,4.10E-04,1.02E+08,,8.20E-04
,,,-0.1013,0.0812,,4.13E-04,1.02E+08,,8.12E-04
,,,-0.1012,0.0812,,4.15E-04,1.03E+08,,8.12E-04
,,,-0.1011,0.082,,4.18E-04,1.04E+08,,8.20E-04
,,,-0.101,0.082,,4.20E-04,1.04E+08,,8.20E-04
,,,-0.1009,0.082,,4.23E-04,1.05E+08,,8.20E-04
,,,-0.1008,0.0824,,4.25E-04,1.06E+08,,8.24E-04
,,,-0.1007,0.082,,4.28E-04,1.06E+08,,8.20E-04
,,,-0.1006,0.0812,,4.30E-04,1.07E+08,,8.12E-04
,,,-0.1005,0.0828,,4.33E-04,1.07E+08,,8.28E-04
,,,-0.1004,0.082,,4.35E-04,1.08E+08,,8.20E-04
,,,-0.1003,0.0824,,4.38E-04,1.09E+08,,8.24E-04
,,,-0.1002,0.0816,,4.40E-04,1.09E+08,,8.16E-04
,,,-0.1001,0.0828,,4.43E-04,1.10E+08,,8.28E-04
,,,-0.1,0.0824,,4.45E-04,1.11E+08,,8.24E-04
,,,-0.0999,0.0812,,4.48E-04,1.11E+08,,8.12E-04
,,,-0.0998,0.0824,,4.50E-04,1.12E+08,,8.24E-04
,,,-0.0997,0.0828,,4.53E-04,1.12E+08,,8.28E-04
,,,-0.0996,0.082,,4.55E-04,1.13E+08,,8.20E-04
,,,-0.0995,0.0824,,4.58E-04,1.14E+08,,8.24E-04
,,,-0.0994,0.082,,4.60E-04,1.14E+08,,8.20E-04
,,,-0.0993,0.082,,4.63E-04,1.15E+08,,8.20E-04
,,,-0.0992,0.082,,4.65E-04,1.16E+08,,8.20E-04
,,,-0.0991,0.082,,4.68E-04,1.16E+08,,8.20E-04
,,,-0.099,0.0824,,4.70E-04,1.17E+08,,8.24E-04
,,,-0.0989,0.082,,4.73E-04,1.17E+08,,8.20E-04
,,,-0.0988,0.082,,4.75E-04,1.18E+08,,8.20E-04
,,,-0.0987,0.0824,,4.78E-04,1.19E+08,,8.24E-04
,,,-0.0986,0.0824,,4.80E-04,1.19E+08,,8.24E-04
,,,-0.0985,0.0812,,4.83E-04,1.20E+08,,8.12E-04
,,,-0.0984,0.0828,,4.85E-04,1.21E+08,,8.28E-04
,,,-0.0983,0.0816,,4.88E-04,1.21E+08,,8.16E-04
,,,-0.0982,0.082,,4.90E-04,1.22E+08,,8.20E-04
,,,-0.0981,0.0824,,4.93E-04,1.22E+08,,8.24E-04
,,,-0.098,0.082,,4.95E-04,1.23E+08,,8.20E-04
,,,-0.0979,0.0816,,4.98E-04,1.24E+08,,8.16E-04
,,,-0.0978,0.0828,,5.00E-04,1.24E+08,,8.28E-04
,,,-0.0977,0.0832,,5.03E-04,1.25E+08,,8.32E-04
,,,-0.0976,0.0816,,5.05E-04,1.25E+08,,8.16E-04
,,,-0.0975,0.0828,,5.08E-04,1.26E+08,,8.28E-04
,,,-0.0974,0.082,,5.10E-04,1.27E+08,,8.20E-04
,,,-0.0973,0.082,,5.13E-04,1.27E+08,,8.20E-04
,,,-0.0972,0.0816,,5.15E-04,1.28E+08,,8.16E-04
,,,-0.0971,0.0824,,5.18E-04,1.29E+08,,8.24E-04
,,,-0.097,0.082,,5.20E-04,1.29E+08,,8.20E-04
,,,-0.0969,0.0824,,5.23E-04,1.30E+08,,8.24E-04
,,,-0.0968,0.082,,5.25E-04,1.30E+08,,8.20E-04
,,,-0.0967,0.082,,5.28E-04,1.31E+08,,8.20E-04
,,,-0.0966,0.0816,,5.30E-04,1.32E+08,,8.16E-04
,,,-0.0965,0.082,,5.33E-04,1.32E+08,,8.20E-04
,,,-0.0964,0.0824,,5.35E-04,1.33E+08,,8.24E-04
,,,-0.0963,0.0824,,5.38E-04,1.34E+08,,8.24E-04
,,,-0.0962,0.0812,,5.40E-04,1.34E+08,,8.12E-04
,,,-0.0961,0.082,,5.43E-04,1.35E+08,,8.20E-04
,,,-0.096,0.082,,5.45E-04,1.35E+08,,8.20E-04
,,,-0.0959,0.0808,,5.48E-04,1.36E+08,,8.08E-04
,,,-0.0958,0.082,,5.50E-04,1.37E+08,,8.20E-04
,,,-0.0957,0.0824,,5.53E-04,1.37E+08,,8.24E-04
,,,-0.0956,0.0812,,5.55E-04,1.38E+08,,8.12E-04
,,,-0.0955,0.0828,,5.58E-04,1.39E+08,,8.28E-04
,,,-0.0954,0.0812,,5.60E-04,1.39E+08,,8.12E-04
,,,-0.0953,0.0824,,5.63E-04,1.40E+08,,8.24E-04
,,,-0.0952,0.0824,,5.65E-04,1.40E+08,,8.24E-04
,,,-0.0951,0.082,,5.68E-04,1.41E+08,,8.20E-04
,,,-0.095,0.082,,5.70E-04,1.42E+08,,8.20E-04
,,,-0.0949,0.0812,,5.73E-04,1.42E+08,,8.12E-04
,,,-0.0948,0.0824,,5.75E-04,1.43E+08,,8.24E-04
,,,-0.0947,0.0816,,5.78E-04,1.43E+08,,8.16E-04
,,,-0.0946,0.082,,5.80E-04,1.44E+08,,8.20E-04
,,,-0.0945,0.0828,,5.83E-04,1.45E+08,,8.28E-04
,,,-0.0944,0.0812,,5.85E-04,1.45E+08,,8.12E-04
,,,-0.0943,0.0824,,5.88E-04,1.46E+08,,8.24E-04
,,,-0.0942,0.082,,5.90E-04,1.47E+08,,8.20E-04
,,,-0.0941,0.082,,5.93E-04,1.47E+08,,8.20E-04
,,,-0.094,0.0828,,5.95E-04,1.48E+08,,8.28E-04
,,,-0.0939,0.082,,5.98E-04,1.48E+08,,8.20E-04
,,,-0.0938,0.0828,,6.00E-04,1.49E+08,,8.28E-04
,,,-0.0937,0.0816,,6.03E-04,1.50E+08,,8.16E-04
,,,-0.0936,0.0824,,6.05E-04,1.50E+08,,8.24E-04
,,,-0.0935,0.0824,,6.08E-04,1.51E+08,,8.24E-04
,,,-0.0934,0.0824,,6.10E-04,1.52E+08,,8.24E-04
,,,-0.0933,0.082,,6.13E-04,1.52E+08,,8.20E-04
,,,-0.0932,0.0824,,6.15E-04,1.53E+08,,8.24E-04
,,,-0.0931,0.0816,,6.18E-04,1.53E+08,,8.16E-04
,,,-0.093,0.082,,6.20E-04,1.54E+08,,8.20E-04
,,,-0.0929,0.0812,,6.23E-04,1.55E+08,,8.12E-04
,,,-0.0928,0.082,,6.25E-04,1.55E+08,,8.20E-04
,,,-0.0927,0.0812,,6.28E-04,1.56E+08,,8.12E-04
,,,-0.0926,0.0808,,6.30E-04,1.57E+08,,8.08E-04
,,,-0.0925,0.0824,,6.33E-04,1.57E+08,,8.24E-04
,,,-0.0924,0.0824,,6.35E-04,1.58E+08,,8.24E-04
,,,-0.0923,0.0812,,6.38E-04,1.58E+08,,8.12E-04
,,,-0.0922,0.0808,,6.40E-04,1.59E+08,,8.08E-04
,,,-0.0921,0.0816,,6.43E-04,1.60E+08,,8.16E-04
,,,-0.092,0.0824,,6.45E-04,1.60E+08,,8.24E-04
,,,-0.0919,0.0816,,6.48E-04,1.61E+08,,8.16E-04
,,,-0.0918,0.0816,,6.50E-04,1.61E+08,,8.16E-04
,,,-0.0917,0.082,,6.53E-04,1.62E+08,,8.20E-04
,,,-0.0916,0.0812,,6.55E-04,1.63E+08,,8.12E-04
,,,-0.0915,0.0824,,6.58E-04,1.63E+08,,8.24E-04
,,,-0.0914,0.0812,,6.60E-04,1.64E+08,,8.12E-04
,,,-0.0913,0.0812,,6.63E-04,1.65E+08,,8.12E-04
,,,-0.0912,0.082,,6.65E-04,1.65E+08,,8.20E-04
,,,-0.0911,0.0812,,6.68E-04,1.66E+08,,8.12E-04
,,,-0.091,0.082,,6.70E-04,1.66E+08,,8.20E-04
,,,-0.0909,0.082,,6.73E-04,1.67E+08,,8.20E-04
,,,-0.0908,0.082,,6.75E-04,1.68E+08,,8.20E-04
,,,-0.0907,0.082,,6.78E-04,1.68E+08,,8.20E-04
,,,-0.0906,0.082,,6.80E-04,1.69E+08,,8.20E-04
,,,-0.0905,0.0816,,6.83E-04,1.70E+08,,8.16E-04
,,,-0.0904,0.0804,,6.85E-04,1.70E+08,,8.04E-04
,,,-0.0903,0.0828,,6.88E-04,1.71E+08,,8.28E-04
,,,-0.0902,0.0828,,6.90E-04,1.71E+08,,8.28E-04
,,,-0.0901,0.082,,6.93E-04,1.72E+08,,8.20E-04
,,,-0.09,0.082,,6.95E-04,1.73E+08,,8.20E-04
,,,-0.0899,0.0824,,6.98E-04,1.73E+08,,8.24E-04
,,,-0.0898,0.0828,,7.00E-04,1.74E+08,,8.28E-04
,,,-0.0897,0.0824,,7.03E-04,1.75E+08,,8.24E-04
,,,-0.0896,0.0804,,7.05E-04,1.75E+08,,8.04E-04
,,,-0.0895,0.0824,,7.08E-04,1.76E+08,,8.24E-04
,,,-0.0894,0.082,,7.10E-04,1.76E+08,,8.20E-04
,,,-0.0893,0.0824,,7.13E-04,1.77E+08,,8.24E-04
,,,-0.0892,0.082,,7.15E-04,1.78E+08,,8.20E-04
,,,-0.0891,0.0824,,7.18E-04,1.78E+08,,8.24E-04
,,,-0.089,0.0824,,7.20E-04,1.79E+08,,8.24E-04
,,,-0.0889,0.0828,,7.23E-04,1.80E+08,,8.28E-04
,,,-0.0888,0.0824,,7.25E-04,1.80E+08,,8.24E-04
,,,-0.0887,0.082,,7.28E-04,1.81E+08,,8.20E-04
,,,-0.0886,0.082,,7.30E-04,1.81E+08,,8.20E-04
,,,-0.0885,0.0828,,7.33E-04,1.82E+08,,8.28E-04
,,,-0.0884,0.0824,,7.35E-04,1.83E+08,,8.24E-04
,,,-0.0883,0.082,,7.38E-04,1.83E+08,,8.20E-04
,,,-0.0882,0.0816,,7.40E-04,1.84E+08,,8.16E-04
,,,-0.0881,0.0816,,7.43E-04,1.84E+08,,8.16E-04
,,,-0.088,0.082,,7.45E-04,1.85E+08,,8.20E-04
,,,-0.0879,0.0816,,7.48E-04,1.86E+08,,8.16E-04
,,,-0.0878,0.082,,7.50E-04,1.86E+08,,8.20E-04
,,,-0.0877,0.0824,,7.53E-04,1.87E+08,,8.24E-04
,,,-0.0876,0.082,,7.55E-04,1.88E+08,,8.20E-04
,,,-0.0875,0.0824,,7.58E-04,1.88E+08,,8.24E-04
,,,-0.0874,0.082,,7.60E-04,1.89E+08,,8.20E-04
,,,-0.0873,0.082,,7.63E-04,1.89E+08,,8.20E-04
,,,-0.0872,0.0816,,7.65E-04,1.90E+08,,8.16E-04
,,,-0.0871,0.082,,7.68E-04,1.91E+08,,8.20E-04
,,,-0.087,0.0824,,7.70E-04,1.91E+08,,8.24E-04
,,,-0.0869,0.0824,,7.73E-04,1.92E+08,,8.24E-04
,,,-0.0868,0.082,,7.75E-04,1.93E+08,,8.20E-04
,,,-0.0867,0.082,,7.78E-04,1.93E+08,,8.20E-04
,,,-0.0866,0.082,,7.80E-04,1.94E+08,,8.20E-04
,,,-0.0865,0.0816,,7.83E-04,1.94E+08,,8.16E-04
,,,-0.0864,0.0824,,7.85E-04,1.95E+08,,8.24E-04
,,,-0.0863,0.0824,,7.88E-04,1.96E+08,,8.24E-04
,,,-0.0862,0.082,,7.90E-04,1.96E+08,,8.20E-04
,,,-0.0861,0.082,,7.93E-04,1.97E+08,,8.20E-04
,,,-0.086,0.0812,,7.95E-04,1.98E+08,,8.12E-04
,,,-0.0859,0.0808,,7.98E-04,1.98E+08,,8.08E-04
,,,-0.0858,0.0824,,8.00E-04,1.99E+08,,8.24E-04
,,,-0.0857,0.0824,,8.03E-04,1.99E+08,,8.24E-04
,,,-0.0856,0.082,,8.05E-04,2.00E+08,,8.20E-04
,,,-0.0855,0.0816,,8.08E-04,2.01E+08,,8.16E-04
,,,-0.0854,0.0816,,8.10E-04,2.01E+08,,8.16E-04
,,,-0.0853,0.082,,8.13E-04,2.02E+08,,8.20E-04
,,,-0.0852,0.0824,,8.15E-04,2.02E+08,,8.24E-04
,,,-0.0851,0.0812,,8.18E-04,2.03E+08,,8.12E-04
,,,-0.085,0.082,,8.20E-04,2.04E+08,,8.20E-04
,,,-0.0849,0.0816,,8.23E-04,2.04E+08,,8.16E-04
,,,-0.0848,0.082,,8.25E-04,2.05E+08,,8.20E-04
,,,-0.0847,0.082,,8.28E-04,2.06E+08,,8.20E-04
,,,-0.0846,0.0824,,8.30E-04,2.06E+08,,8.24E-04
,,,-0.0845,0.0824,,8.33E-04,2.07E+08,,8.24E-04
,,,-0.0844,0.0816,,8.35E-04,2.07E+08,,8.16E-04
,,,-0.0843,0.082,,8.38E-04,2.08E+08,,8.20E-04
,,,-0.0842,0.082,,8.40E-04,2.09E+08,,8.20E-04
,,,-0.0841,0.0812,,8.43E-04,2.09E+08,,8.12E-04
,,,-0.084,0.0824,,8.45E-04,2.10E+08,,8.24E-04
,,,-0.0839,0.0816,,8.48E-04,2.11E+08,,8.16E-04
,,,-0.0838,0.0824,,8.50E-04,2.11E+08,,8.24E-04
,,,-0.0837,0.082,,8.53E-04,2.12E+08,,8.20E-04
,,,-0.0836,0.082,,8.55E-04,2.12E+08,,8.20E-04
,,,-0.0835,0.082,,8.58E-04,2.13E+08,,8.20E-04
,,,-0.0834,0.082,,8.60E-04,2.14E+08,,8.20E-04
,,,-0.0833,0.0828,,8.63E-04,2.14E+08,,8.28E-04
,,,-0.0832,0.082,,8.65E-04,2.15E+08,,8.20E-04
,,,-0.0831,0.082,,8.68E-04,2.16E+08,,8.20E-04
,,,-0.083,0.082,,8.70E-04,2.16E+08,,8.20E-04
,,,-0.0829,0.0816,,8.73E-04,2.17E+08,,8.16E-04
,,,-0.0828,0.0824,,8.75E-04,2.17E+08,,8.24E-04
,,,-0.0827,0.0816,,8.78E-04,2.18E+08,,8.16E-04
,,,-0.0826,0.0816,,8.80E-04,2.19E+08,,8.16E-04
,,,-0.0825,0.082,,8.83E-04,2.19E+08,,8.20E-04
,,,-0.0824,0.0824,,8.85E-04,2.20E+08,,8.24E-04
,,,-0.0823,0.082,,8.88E-04,2.21E+08,,8.20E-04
,,,-0.0822,0.0824,,8.90E-04,2.21E+08,,8.24E-04
,,,-0.0821,0.082,,8.93E-04,2.22E+08,,8.20E-04
,,,-0.082,0.0812,,8.95E-04,2.22E+08,,8.12E-04
,,,-0.0819,0.082,,8.98E-04,2.23E+08,,8.20E-04
,,,-0.0818,0.0824,,9.00E-04,2.24E+08,,8.24E-04
,,,-0.0817,0.0824,,9.03E-04,2.24E+08,,8.24E-04
,,,-0.0816,0.0828,,9.05E-04,2.25E+08,,8.28E-04
,,,-0.0815,0.082,,9.08E-04,2.25E+08,,8.20E-04
,,,-0.0814,0.0824,,9.10E-04,2.26E+08,,8.24E-04
,,,-0.0813,0.0828,,9.13E-04,2.27E+08,,8.28E-04
,,,-0.0812,0.082,,9.15E-04,2.27E+08,,8.20E-04
,,,-0.0811,0.082,,9.18E-04,2.28E+08,,8.20E-04
,,,-0.081,0.0832,,9.20E-04,2.29E+08,,8.32E-04
,,,-0.0809,0.0824,,9.23E-04,2.29E+08,,8.24E-04
,,,-0.0808,0.0828,,9.25E-04,2.30E+08,,8.28E-04
,,,-0.0807,0.0812,,9.28E-04,2.30E+08,,8.12E-04
,,,-0.0806,0.0812,,9.30E-04,2.31E+08,,8.12E-04
,,,-0.0805,0.0824,,9.33E-04,2.32E+08,,8.24E-04
,,,-0.0804,0.0824,,9.35E-04,2.32E+08,,8.24E-04
,,,-0.0803,0.082,,9.38E-04,2.33E+08,,8.20E-04
,,,-0.0802,0.0824,,9.40E-04,2.34E+08,,8.24E-04
,,,-0.0801,0.082,,9.43E-04,2.34E+08,,8.20E-04
,,,-0.08,0.0812,,9.45E-04,2.35E+08,,8.12E-04
,,,-0.0799,0.082,,9.48E-04,2.35E+08,,8.20E-04
,,,-0.0798,0.082,,9.50E-04,2.36E+08,,8.20E-04
,,,-0.0797,0.0824,,9.53E-04,2.37E+08,,8.24E-04
,,,-0.0796,0.0816,,9.55E-04,2.37E+08,,8.16E-04
,,,-0.0795,0.0824,,9.58E-04,2.38E+08,,8.24E-04
,,,-0.0794,0.082,,9.60E-04,2.39E+08,,8.20E-04
,,,-0.0793,0.082,,9.63E-04,2.39E+08,,8.20E-04
,,,-0.0792,0.082,,9.65E-04,2.40E+08,,8.20E-04
,,,-0.0791,0.082,,9.68E-04,2.40E+08,,8.20E-04
,,,-0.079,0.0828,,9.70E-04,2.41E+08,,8.28E-04
,,,-0.0789,0.0824,,9.73E-04,2.42E+08,,8.24E-04
,,,-0.0788,0.082,,9.75E-04,2.42E+08,,8.20E-04
,,,-0.0787,0.082,,9.78E-04,2.43E+08,,8.20E-04
,,,-0.0786,0.0824,,9.80E-04,2.43E+08,,8.24E-04
,,,-0.0785,0.0812,,9.83E-04,2.44E+08,,8.12E-04
,,,-0.0784,0.082,,9.85E-04,2.45E+08,,8.20E-04
,,,-0.0783,0.0824,,9.88E-04,2.45E+08,,8.24E-04
,,,-0.0782,0.0812,,9.90E-04,2.46E+08,,8.12E-04
,,,-0.0781,0.0808,,9.93E-04,2.47E+08,,8.08E-04
,,,-0.078,0.082,,9.95E-04,2.47E+08,,8.20E-04
,,,-0.0779,0.0828,,9.98E-04,2.48E+08,,8.28E-04
,,,-0.0778,0.0824,,1.00E-03,2.48E+08,,8.24E-04
,,,-0.0777,0.082,,1.00E-03,2.49E+08,,8.20E-04
,,,-0.0776,0.0824,,1.01E-03,2.50E+08,,8.24E-04
,,,-0.0775,0.0812,,1.01E-03,2.50E+08,,8.12E-04
,,,-0.0774,0.082,,1.01E-03,2.51E+08,,8.20E-04
,,,-0.0773,0.0824,,1.01E-03,2.52E+08,,8.24E-04
,,,-0.0772,0.0816,,1.02E-03,2.52E+08,,8.16E-04
,,,-0.0771,0.0816,,1.02E-03,2.53E+08,,8.16E-04
,,,-0.077,0.082,,1.02E-03,2.53E+08,,8.20E-04
,,,-0.0769,0.082,,1.02E-03,2.54E+08,,8.20E-04
,,,-0.0768,0.082,,1.03E-03,2.55E+08,,8.20E-04
,,,-0.0767,0.0824,,1.03E-03,2.55E+08,,8.24E-04
,,,-0.0766,0.082,,1.03E-03,2.56E+08,,8.20E-04
,,,-0.0765,0.0824,,1.03E-03,2.57E+08,,8.24E-04
,,,-0.0764,0.0824,,1.04E-03,2.57E+08,,8.24E-04
,,,-0.0763,0.0816,,1.04E-03,2.58E+08,,8.16E-04
,,,-0.0762,0.0824,,1.04E-03,2.58E+08,,8.24E-04
,,,-0.0761,0.082,,1.04E-03,2.59E+08,,8.20E-04
,,,-0.076,0.0816,,1.05E-03,2.60E+08,,8.16E-04
,,,-0.0759,0.0816,,1.05E-03,2.60E+08,,8.16E-04
,,,-0.0758,0.0824,,1.05E-03,2.61E+08,,8.24E-04
,,,-0.0757,0.0812,,1.05E-03,2.62E+08,,8.12E-04
