Lab 4/F0000CH1A1.CSV

Record Length,2.500000e+03,,  -0.064800000000,   2.06000,
Sample Interval,4.000000e-05,,  -0.064760000000,   2.08000,
Trigger Point,1.620000000000e+03,,  -0.064720000000,   2.06000,
,,,  -0.064680000000,   2.08000,
,,,  -0.064640000000,   2.08000,
,,,  -0.064600000000,   2.10000,
Source,CH1,,  -0.064560000000,   2.06000,
Vertical Units,V,,  -0.064520000000,   2.08000,
Vertical Scale,5.000000e-01,,  -0.064480000000,   2.08000,
Vertical Offset,-1.940000e+00,,  -0.064440000000,   2.08000,
Horizontal Units,s,,  -0.064400000000,   2.08000,
Horizontal Scale,1.000000e-02,,  -0.064360000000,   2.10000,
Pt Fmt,Y,,  -0.064320000000,   2.10000,
Yzero,0.000000e+00,,  -0.064280000000,   2.08000,
Probe Atten,1.000000e+00,,  -0.064240000000,   2.08000,
Model Number,TBS1102B-EDU,,  -0.064200000000,   2.08000,
Serial Number,C023023,,  -0.064160000000,   2.10000,
Firmware Version,FV:v4.06,,  -0.064120000000,   2.08000,
,,,-00.064080000000,   2.08000,
,,,-00.064040000000,   2.10000,
,,,-00.064000000000,   2.08000,
,,,-00.063960000000,   2.08000,
,,,-00.063920000000,   2.08000,
,,,-00.063880000000,   2.10000,
,,,-00.063840000000,   2.08000,
,,,-00.063800000000,   2.10000,
,,,-00.063760000000,   2.10000,
,,,-00.063720000000,   2.10000,
,,,-00.063680000000,   2.08000,
,,,-00.063640000000,   2.10000,
,,,-00.063600000000,   2.10000,
,,,-00.063560000000,   2.08000,
,,,-00.063520000000,   2.12000,
,,,-00.063480000000,   2.08000,
,,,-00.063440000000,   2.10000,
,,,-00.063400000000,   2.10000,
,,,-00.063360000000,   2.10000,
,,,-00.063320000000,   2.10000,
,,,-00.063280000000,   2.10000,
,,,-00.063240000000,   2.10000,
,,,-00.063200000000,   2.08000,
,,,-00.063160000000,   2.10000,
,,,-00.063120000000,   2.12000,
,,,-00.063080000000,   2.12000,
,,,-00.063040000000,   2.10000,
,,,-00.063000000000,   2.10000,
,,,-00.062960000000,   2.10000,
,,,-00.062920000000,   2.10000,
,,,-00.062880000000,   2.10000,
,,,-00.062840000000,   2.12000,
,,,-00.062800000000,   2.10000,
,,,-00.062760000000,   2.12000,
,,,-00.062720000000,   2.14000,
,,,-00.062680000000,   2.12000,
,,,-00.062640000000,   2.10000,
,,,-00.062600000000,   2.12000,
,,,-00.062560000000,   2.12000,
,,,-00.062520000000,   2.12000,
,,,-00.062480000000,   2.10000,
,,,-00.062440000000,   2.12000,
,,,-00.062400000000,   2.12000,
,,,-00.062360000000,   2.12000,
,,,-00.062320000000,   2.12000,
,,,-00.062280000000,   2.10000,
,,,-00.062240000000,   2.12000,
,,,-00.062200000000,   2.12000,
,,,-00.062160000000,   2.12000,
,,,-00.062120000000,   2.12000,
,,,-00.062080000000,   2.12000,
,,,-00.062040000000,   2.12000,
,,,-00.062000000000,   2.14000,
,,,-00.061960000000,   2.14000,
,,,-00.061920000000,   2.12000,
,,,-00.061880000000,   2.12000,
,,,-00.061840000000,   2.12000,
,,,-00.061800000000,   2.12000,
,,,-00.061760000000,   2.12000,
,,,-00.061720000000,   2.12000,
,,,-00.061680000000,   2.12000,
,,,-00.061640000000,   2.12000,
,,,-00.061600000000,   2.12000,
,,,-00.061560000000,   2.14000,
,,,-00.061520000000,   2.14000,
,,,-00.061480000000,   2.14000,
,,,-00.061440000000,   2.14000,
,,,-00.061400000000,   2.12000,
,,,-00.061360000000,   2.12000,
,,,-00.061320000000,   2.14000,
,,,-00.061280000000,   2.14000,
,,,-00.061240000000,   2.14000,
,,,-00.061200000000,   2.14000,
,,,-00.061160000000,   2.14000,
,,,-00.061120000000,   2.12000,
,,,-00.061080000000,   2.14000,
,,,-00.061040000000,   2.14000,
,,,-00.061000000000,   2.14000,
,,,-00.060960000000,   2.14000,
,,,-00.060920000000,   2.14000,
,,,-00.060880000000,   2.14000,
,,,-00.060840000000,   2.14000,
,,,-00.060800000000,   2.14000,
,,,-00.060760000000,   2.16000,
,,,-00.060720000000,   2.14000,
,,,-00.060680000000,   2.14000,
,,,-00.060640000000,   2.14000,
,,,-00.060600000000,   2.14000,
,,,-00.060560000000,   2.16000,
,,,-00.060520000000,   2.14000,
,,,-00.060480000000,   2.14000,
,,,-00.060440000000,   2.14000,
,,,-00.060400000000,   2.14000,
,,,-00.060360000000,   2.14000,
,,,-00.060320000000,   2.14000,
,,,-00.060280000000,   2.14000,
,,,-00.060240000000,   2.14000,
,,,-00.060200000000,   2.16000,
,,,-00.060160000000,   2.14000,
,,,-00.060120000000,   2.14000,
,,,-00.060080000000,   2.16000,
,,,-00.060040000000,   2.16000,
,,,-00.060000000000,   2.16000,
,,,-00.059960000000,   2.16000,
,,,-00.059920000000,   2.16000,
,,,-00.059880000000,   2.14000,
,,,-00.059840000000,   2.14000,
,,,-00.059800000000,   2.16000,
,,,-00.059760000000,   2.14000,
,,,-00.059720000000,   2.16000,
,,,-00.059680000000,   2.16000,
,,,-00.059640000000,   2.16000,
,,,-00.059600000000,   2.16000,
,,,-00.059560000000,   2.16000,
,,,-00.059520000000,   2.16000,
,,,-00.059480000000,   2.16000,
,,,-00.059440000000,   2.14000,
,,,-00.059400000000,   2.16000,
,,,-00.059360000000,   2.16000,
,,,-00.059320000000,   2.18000,
,,,-00.059280000000,   2.16000,
,,,-00.059240000000,   2.14000,
,,,-00.059200000000,   2.16000,
,,,-00.059160000000,   2.18000,
,,,-00.059120000000,   2.16000,
,,,-00.059080000000,   2.16000,
,,,-00.059040000000,   2.18000,
,,,-00.059000000000,   2.18000,
,,,-00.058960000000,   2.16000,
,,,-00.058920000000,   2.18000,
,,,-00.058880000000,   2.16000,
,,,-00.058840000000,   2.16000,
,,,-00.058800000000,   2.16000,
,,,-00.058760000000,   2.16000,
,,,-00.058720000000,   2.18000,
,,,-00.058680000000,   2.16000,
,,,-00.058640000000,   2.18000,
,,,-00.058600000000,   2.20000,
,,,-00.058560000000,   2.16000,
,,,-00.058520000000,   2.18000,
,,,-00.058480000000,   2.16000,
,,,-00.058440000000,   2.18000,
,,,-00.058400000000,   2.18000,
,,,-00.058360000000,   2.18000,
,,,-00.058320000000,   2.18000,
,,,-00.058280000000,   2.18000,
,,,-00.058240000000,   2.18000,
,,,-00.058200000000,   2.18000,
,,,-00.058160000000,   2.20000,
,,,-00.058120000000,   2.18000,
,,,-00.058080000000,   2.18000,
,,,-00.058040000000,   2.16000,
,,,-00.058000000000,   2.18000,
,,,-00.057960000000,   2.18000,
,,,-00.057920000000,   2.18000,
,,,-00.057880000000,   2.18000,
,,,-00.057840000000,   2.18000,
,,,-00.057800000000,   2.18000,
,,,-00.057760000000,   2.18000,
,,,-00.057720000000,   2.18000,
,,,-00.057680000000,   2.18000,
,,,-00.057640000000,   2.18000,
,,,-00.057600000000,   2.18000,
,,,-00.057560000000,   2.18000,
,,,-00.057520000000,   2.20000,
,,,-00.057480000000,   2.18000,
,,,-00.057440000000,   2.20000,
,,,-00.057400000000,   2.20000,
,,,-00.057360000000,   2.20000,
,,,-00.057320000000,   2.20000,
,,,-00.057280000000,   2.20000,
,,,-00.057240000000,   2.20000,
,,,-00.057200000000,   2.20000,
,,,-00.057160000000,   2.20000,
,,,-00.057120000000,   2.18000,
,,,-00.057080000000,   2.20000,
,,,-00.057040000000,   2.20000,
,,,-00.057000000000,   2.20000,
,,,-00.056960000000,   2.18000,
,,,-00.056920000000,   2.20000,
,,,-00.056880000000,   2.20000,
,,,-00.056840000000,   2.20000,
,,,-00.056800000000,   2.20000,
,,,-00.056760000000,   2.20000,
,,,-00.056720000000,   2.20000,
,,,-00.056680000000,   2.22000,
,,,-00.056640000000,   2.20000,
,,,-00.056600000000,   2.20000,
,,,-00.056560000000,   2.20000,
,,,-00.056520000000,   2.20000,
,,,-00.056480000000,   2.20000,
,,,-00.056440000000,   2.20000,
,,,-00.056400000000,   2.20000,
,,,-00.056360000000,   2.18000,
,,,-00.056320000000,   2.20000,
,,,-00.056280000000,   2.20000,
,,,-00.056240000000,   2.20000,
,,,-00.056200000000,   2.20000,
,,,-00.056160000000,   2.22000,
,,,-00.056120000000,   2.20000,
,,,-00.056080000000,   2.22000,
,,,-00.056040000000,   2.22000,
,,,-00.056000000000,   2.18000,
,,,-00.055960000000,   2.20000,
,,,-00.055920000000,   2.22000,
,,,-00.055880000000,   2.22000,
,,,-00.055840000000,   2.20000,
,,,-00.055800000000,   2.20000,
,,,-00.055760000000,   2.22000,
,,,-00.055720000000,   2.22000,
,,,-00.055680000000,   2.22000,
,,,-00.055640000000,   2.22000,
,,,-00.055600000000,   2.20000,
,,,-00.055560000000,   2.22000,
,,,-00.055520000000,   2.20000,
,,,-00.055480000000,   2.22000,
,,,-00.055440000000,   2.22000,
,,,-00.055400000000,   2.22000,
,,,-00.055360000000,   2.22000,
,,,-00.055320000000,   2.24000,
,,,-00.055280000000,   2.24000,
,,,-00.055240000000,   2.22000,
,,,-00.055200000000,   2.22000,
,,,-00.055160000000,   2.24000,
,,,-00.055120000000,   2.22000,
,,,-00.055080000000,   2.24000,
,,,-00.055040000000,   2.22000,
,,,-00.055000000000,   2.22000,
,,,-00.054960000000,   2.22000,
,,,-00.054920000000,   2.22000,
,,,-00.054880000000,   2.22000,
,,,-00.054840000000,   2.22000,
,,,-00.054800000000,   2.20000,
,,,-00.054760000000,   2.24000,
,,,-00.054720000000,   2.22000,
,,,-00.054680000000,   2.22000,
,,,-00.054640000000,   2.22000,
,,,-00.054600000000,   2.24000,
,,,-00.054560000000,   2.24000,
,,,-00.054520000000,   2.24000,
,,,-00.054480000000,   2.24000,
,,,-00.054440000000,   2.24000,
,,,-00.054400000000,   2.22000,
,,,-00.054360000000,   2.22000,
,,,-00.054320000000,   2.22000,
,,,-00.054280000000,   2.24000,
,,,-00.054240000000,   2.22000,
,,,-00.054200000000,   2.24000,
,,,-00.054160000000,   2.24000,
,,,-00.054120000000,   2.22000,
,,,-00.054080000000,   2.26000,
,,,-00.054040000000,   2.24000,
,,,-00.054000000000,   2.22000,
,,,-00.053960000000,   2.24000,
,,,-00.053920000000,   2.24000,
,,,-00.053880000000,   2.22000,
,,,-00.053840000000,   2.24000,
,,,-00.053800000000,   2.24000,
,,,-00.053760000000,   2.22000,
,,,-00.053720000000,   2.24000,
,,,-00.053680000000,   2.26000,
,,,-00.053640000000,   2.24000,
,,,-00.053600000000,   2.24000,
,,,-00.053560000000,   2.24000,
,,,-00.053520000000,   2.22000,
,,,-00.053480000000,   2.24000,
,,,-00.053440000000,   2.24000,
,,,-00.053400000000,   2.26000,
,,,-00.053360000000,   2.26000,
,,,-00.053320000000,   2.26000,
,,,-00.053280000000,   2.24000,
,,,-00.053240000000,   2.24000,
,,,-00.053200000000,   2.22000,
,,,-00.053160000000,   2.26000,
,,,-00.053120000000,   2.26000,
,,,-00.053080000000,   2.26000,
,,,-00.053040000000,   2.26000,
,,,-00.053000000000,   2.24000,
,,,-00.052960000000,   2.26000,
,,,-00.052920000000,   2.26000,
,,,-00.052880000000,   2.26000,
,,,-00.052840000000,   2.26000,
,,,-00.052800000000,   2.22000,
,,,-00.052760000000,   2.26000,
,,,-00.052720000000,   2.26000,
,,,-00.052680000000,   2.24000,
,,,-00.052640000000,   2.24000,
,,,-00.052600000000,   2.26000,
,,,-00.052560000000,   2.24000,
,,,-00.052520000000,   2.24000,
,,,-00.052480000000,   2.26000,
,,,-00.052440000000,   2.26000,
,,,-00.052400000000,   2.26000,
,,,-00.052360000000,   2.24000,
,,,-00.052320000000,   2.26000,
,,,-00.052280000000,   2.26000,
,,,-00.052240000000,   2.28000,
,,,-00.052200000000,   2.24000,
,,,-00.052160000000,   2.28000,
,,,-00.052120000000,   2.26000,
,,,-00.052080000000,   2.26000,
,,,-00.052040000000,   2.26000,
,,,-00.052000000000,   2.28000,
,,,-00.051960000000,   2.26000,
,,,-00.051920000000,   2.26000,
,,,-00.051880000000,   2.26000,
,,,-00.051840000000,   2.26000,
,,,-00.051800000000,   2.24000,
,,,-00.051760000000,   2.26000,
,,,-00.051720000000,   2.28000,
,,,-00.051680000000,   2.24000,
,,,-00.051640000000,   2.26000,
,,,-00.051600000000,   2.26000,
,,,-00.051560000000,   2.26000,
,,,-00.051520000000,   2.26000,
,,,-00.051480000000,   2.26000,
,,,-00.051440000000,   2.26000,
,,,-00.051400000000,   2.24000,
,,,-00.051360000000,   2.28000,
,,,-00.051320000000,   2.26000,
,,,-00.051280000000,   2.26000,
,,,-00.051240000000,   2.26000,
,,,-00.051200000000,   2.26000,
,,,-00.051160000000,   2.24000,
,,,-00.051120000000,   2.24000,
,,,-00.051080000000,   2.24000,
,,,-00.051040000000,   2.26000,
,,,-00.051000000000,   2.24000,
,,,-00.050960000000,   2.26000,
,,,-00.050920000000,   2.26000,
,,,-00.050880000000,   2.24000,
,,,-00.050840000000,   2.26000,
,,,-00.050800000000,   2.24000,
,,,-00.050760000000,   2.26000,
,,,-00.050720000000,   2.24000,
,,,-00.050680000000,   2.26000,
,,,-00.050640000000,   2.26000,
,,,-00.050600000000,   2.24000,
,,,-00.050560000000,   2.24000,
,,,-00.050520000000,   2.22000,
,,,-00.050480000000,   2.24000,
,,,-00.050440000000,   2.22000,
,,,-00.050400000000,   2.24000,
,,,-00.050360000000,   2.24000,
,,,-00.050320000000,   2.24000,
,,,-00.050280000000,   2.24000,
,,,-00.050240000000,   2.24000,
,,,-00.050200000000,   2.24000,
,,,-00.050160000000,   2.26000,
,,,-00.050120000000,   2.24000,
,,,-00.050080000000,   2.24000,
,,,-00.050040000000,   2.26000,
,,,-00.050000000000,   2.24000,
,,,-00.049960000000,   2.24000,
,,,-00.049920000000,   2.26000,
,,,-00.049880000000,   2.22000,
,,,-00.049840000000,   2.24000,
,,,-00.049800000000,   2.24000,
,,,-00.049760000000,   2.24000,
,,,-00.049720000000,   2.24000,
,,,-00.049680000000,   2.26000,
,,,-00.049640000000,   2.22000,
,,,-00.049600000000,   2.24000,
,,,-00.049560000000,   2.24000,
,,,-00.049520000000,   2.24000,
,,,-00.049480000000,   2.22000,
,,,-00.049440000000,   2.22000,
,,,-00.049400000000,   2.24000,
,,,-00.049360000000,   2.22000,
,,,-00.049320000000,   2.22000,
,,,-00.049280000000,   2.24000,
,,,-00.049240000000,   2.22000,
,,,-00.049200000000,   2.22000,
,,,-00.049160000000,   2.24000,
,,,-00.049120000000,   2.22000,
,,,-00.049080000000,   2.22000,
,,,-00.049040000000,   2.22000,
,,,-00.049000000000,   2.24000,
,,,-00.048960000000,   2.22000,
,,,-00.048920000000,   2.22000,
,,,-00.048880000000,   2.22000,
,,,-00.048840000000,   2.24000,
,,,-00.048800000000,   2.22000,
,,,-00.048760000000,   2.24000,
,,,-00.048720000000,   2.22000,
,,,-00.048680000000,   2.24000,
,,,-00.048640000000,   2.22000,
,,,-00.048600000000,   2.22000,
,,,-00.048560000000,   2.22000,
,,,-00.048520000000,   2.22000,
,,,-00.048480000000,   2.22000,
,,,-00.048440000000,   2.22000,
,,,-00.048400000000,   2.20000,
,,,-00.048360000000,   2.24000,
,,,-00.048320000000,   2.22000,
,,,-00.048280000000,   2.22000,
,,,-00.048240000000,   2.22000,
,,,-00.048200000000,   2.22000,
,,,-00.048160000000,   2.22000,
,,,-00.048120000000,   2.20000,
,,,-00.048080000000,   2.20000,
,,,-00.048040000000,   2.24000,
,,,-00.048000000000,   2.22000,
,,,-00.047960000000,   2.22000,
,,,-00.047920000000,   2.20000,
,,,-00.047880000000,   2.20000,
,,,-00.047840000000,   2.20000,
,,,-00.047800000000,   2.22000,
,,,-00.047760000000,   2.22000,
,,,-00.047720000000,   2.20000,
,,,-00.047680000000,   2.22000,
,,,-00.047640000000,   2.20000,
,,,-00.047600000000,   2.22000,
,,,-00.047560000000,   2.22000,
,,,-00.047520000000,   2.22000,
,,,-00.047480000000,   2.20000,
,,,-00.047440000000,   2.22000,
,,,-00.047400000000,   2.20000,
,,,-00.047360000000,   2.20000,
,,,-00.047320000000,   2.22000,
,,,-00.047280000000,   2.20000,
,,,-00.047240000000,   2.20000,
,,,-00.047200000000,   2.20000,
,,,-00.047160000000,   2.18000,
,,,-00.047120000000,   2.22000,
,,,-00.047080000000,   2.22000,
,,,-00.047040000000,   2.20000,
,,,-00.047000000000,   2.22000,
,,,-00.046960000000,   2.20000,
,,,-00.046920000000,   2.20000,
,,,-00.046880000000,   2.18000,
,,,-00.046840000000,   2.20000,
,,,-00.046800000000,   2.20000,
,,,-00.046760000000,   2.20000,
,,,-00.046720000000,   2.18000,
,,,-00.046680000000,   2.18000,
,,,-00.046640000000,   2.18000,
,,,-00.046600000000,   2.18000,
,,,-00.046560000000,   2.20000,
,,,-00.046520000000,   2.18000,
,,,-00.046480000000,   2.20000,
,,,-00.046440000000,   2.18000,
,,,-00.046400000000,   2.20000,
,,,-00.046360000000,   2.20000,
,,,-00.046320000000,   2.20000,
,,,-00.046280000000,   2.18000,
,,,-00.046240000000,   2.16000,
,,,-00.046200000000,   2.18000,
,,,-00.046160000000,   2.18000,
,,,-00.046120000000,   2.18000,
,,,-00.046080000000,   2.18000,
,,,-00.046040000000,   2.18000,
,,,-00.046000000000,   2.18000,
,,,-00.045960000000,   2.18000,
,,,-00.045920000000,   2.16000,
,,,-00.045880000000,   2.18000,
,,,-00.045840000000,   2.18000,
,,,-00.045800000000,   2.20000,
,,,-00.045760000000,   2.18000,
,,,-00.045720000000,   2.18000,
,,,-00.045680000000,   2.18000,
,,,-00.045640000000,   2.18000,
,,,-00.045600000000,   2.18000,
,,,-00.045560000000,   2.18000,
,,,-00.045520000000,   2.16000,
,,,-00.045480000000,   2.16000,
,,,-00.045440000000,   2.18000,
,,,-00.045400000000,   2.16000,
,,,-00.045360000000,   2.18000,
,,,-00.045320000000,   2.18000,
,,,-00.045280000000,   2.18000,
,,,-00.045240000000,   2.18000,
,,,-00.045200000000,   2.16000,
,,,-00.045160000000,   2.18000,
,,,-00.045120000000,   2.16000,
,,,-00.045080000000,   2.18000,
,,,-00.045040000000,   2.18000,
,,,-00.045000000000,   2.18000,
,,,-00.044960000000,   2.18000,
,,,-00.044920000000,   2.16000,
,,,-00.044880000000,   2.16000,
,,,-00.044840000000,   2.16000,
,,,-00.044800000000,   2.18000,
,,,-00.044760000000,   2.18000,
,,,-00.044720000000,   2.16000,
,,,-00.044680000000,   2.18000,
,,,-00.044640000000,   2.18000,
,,,-00.044600000000,   2.16000,
,,,-00.044560000000,   2.16000,
,,,-00.044520000000,   2.18000,
,,,-00.044480000000,   2.18000,
,,,-00.044440000000,   2.16000,
,,,-00.044400000000,   2.14000,
,,,-00.044360000000,   2.16000,
,,,-00.044320000000,   2.16000,
,,,-00.044280000000,   2.16000,
,,,-00.044240000000,   2.14000,
,,,-00.044200000000,   2.16000,
,,,-00.044160000000,   2.16000,
,,,-00.044120000000,   2.18000,
,,,-00.044080000000,   2.16000,
,,,-00.044040000000,   2.16000,
,,,-00.044000000000,   2.14000,
,,,-00.043960000000,   2.16000,
,,,-00.043920000000,   2.14000,
,,,-00.043880000000,   2.14000,
,,,-00.043840000000,   2.14000,
,,,-00.043800000000,   2.14000,
,,,-00.043760000000,   2.16000,
,,,-00.043720000000,   2.16000,
,,,-00.043680000000,   2.14000,
,,,-00.043640000000,   2.16000,
,,,-00.043600000000,   2.14000,
,,,-00.043560000000,   2.16000,
,,,-00.043520000000,   2.14000,
,,,-00.043480000000,   2.14000,
,,,-00.043440000000,   2.14000,
,,,-00.043400000000,   2.16000,
,,,-00.043360000000,   2.14000,
,,,-00.043320000000,   2.14000,
,,,-00.043280000000,   2.14000,
,,,-00.043240000000,   2.14000,
,,,-00.043200000000,   2.14000,
,,,-00.043160000000,   2.14000,
,,,-00.043120000000,   2.14000,
,,,-00.043080000000,   2.14000,
,,,-00.043040000000,   2.14000,
,,,-00.043000000000,   2.14000,
,,,-00.042960000000,   2.14000,
,,,-00.042920000000,   2.14000,
,,,-00.042880000000,   2.14000,
,,,-00.042840000000,   2.16000,
,,,-00.042800000000,   2.12000,
,,,-00.042760000000,   2.14000,
,,,-00.042720000000,   2.14000,
,,,-00.042680000000,   2.14000,
,,,-00.042640000000,   2.14000,
,,,-00.042600000000,   2.12000,
,,,-00.042560000000,   2.14000,
,,,-00.042520000000,   2.14000,
,,,-00.042480000000,   2.14000,
,,,-00.042440000000,   2.14000,
,,,-00.042400000000,   2.14000,
,,,-00.042360000000,   2.14000,
,,,-00.042320000000,   2.14000,
,,,-00.042280000000,   2.14000,
,,,-00.042240000000,   2.14000,
,,,-00.042200000000,   2.14000,
,,,-00.042160000000,   2.12000,
,,,-00.042120000000,   2.12000,
,,,-00.042080000000,   2.14000,
,,,-00.042040000000,   2.12000,
,,,-00.042000000000,   2.14000,
,,,-00.041960000000,   2.14000,
,,,-00.041920000000,   2.12000,
,,,-00.041880000000,   2.12000,
,,,-00.041840000000,   2.12000,
,,,-00.041800000000,   2.12000,
,,,-00.041760000000,   2.12000,
,,,-00.041720000000,   2.12000,
,,,-00.041680000000,   2.12000,
,,,-00.041640000000,   2.10000,
,,,-00.041600000000,   2.14000,
,,,-00.041560000000,   2.14000,
,,,-00.041520000000,   2.12000,
,,,-00.041480000000,   2.10000,
,,,-00.041440000000,   2.12000,
,,,-00.041400000000,   2.10000,
,,,-00.041360000000,   2.12000,
,,,-00.041320000000,   2.12000,
,,,-00.041280000000,   2.14000,
,,,-00.041240000000,   2.10000,
,,,-00.041200000000,   2.10000,
,,,-00.041160000000,   2.10000,
,,,-00.041120000000,   2.12000,
,,,-00.041080000000,   2.08000,
,,,-00.041040000000,   2.12000,
,,,-00.041000000000,   2.12000,
,,,-00.040960000000,   2.10000,
,,,-00.040920000000,   2.10000,
,,,-00.040880000000,   2.10000,
,,,-00.040840000000,   2.10000,
,,,-00.040800000000,   2.12000,
,,,-00.040760000000,   2.10000,
,,,-00.040720000000,   2.10000,
,,,-00.040680000000,   2.10000,
,,,-00.040640000000,   2.10000,
,,,-00.040600000000,   2.12000,
,,,-00.040560000000,   2.10000,
,,,-00.040520000000,   2.12000,
,,,-00.040480000000,   2.14000,
,,,-00.040440000000,   2.10000,
,,,-00.040400000000,   2.08000,
,,,-00.040360000000,   2.12000,
,,,-00.040320000000,   2.08000,
,,,-00.040280000000,   2.12000,
