Lab 4/F0000CH1A8.CSV

Record Length,2.500000e+03,,  -0.039800000000,  10.80000,
Sample Interval,2.000000e-05,,  -0.039780000000,  10.80000,
Trigger Point,1.990000000000e+03,,  -0.039760000000,  10.88000,
,,,  -0.039740000000,  10.88000,
,,,  -0.039720000000,  10.96000,
,,,  -0.039700000000,  10.96000,
Source,CH1,,  -0.039680000000,  10.96000,
Vertical Units,V,,  -0.039660000000,  10.96000,
Vertical Scale,2.000000e+00,,  -0.039640000000,  10.96000,
Vertical Offset,-8.640000e+00,,  -0.039620000000,  10.96000,
Horizontal Units,s,,  -0.039600000000,  10.96000,
Horizontal Scale,5.000000e-03,,  -0.039580000000,  10.88000,
Pt Fmt,Y,,  -0.039560000000,  10.88000,
Yzero,0.000000e+00,,  -0.039540000000,  10.80000,
Probe Atten,1.000000e+00,,  -0.039520000000,  10.80000,
Model Number,TBS1102B-EDU,,  -0.039500000000,  10.72000,
Serial Number,C023023,,  -0.039480000000,  10.64000,
Firmware Version,FV:v4.06,,  -0.039460000000,  10.64000,
,,,-00.039440000000,  10.56000,
,,,-00.039420000000,  10.48000,
,,,-00.039400000000,  10.48000,
,,,-00.039380000000,  10.40000,
,,,-00.039360000000,  10.40000,
,,,-00.039340000000,  10.56000,
,,,-00.039320000000,  10.56000,
,,,-00.039300000000,  10.64000,
,,,-00.039280000000,  10.64000,
,,,-00.039260000000,  10.72000,
,,,-00.039240000000,  10.80000,
,,,-00.039220000000,  10.96000,
,,,-00.039200000000,  11.04000,
,,,-00.039180000000,  11.12000,
,,,-00.039160000000,  11.12000,
,,,-00.039140000000,  11.20000,
,,,-00.039120000000,  11.28000,
,,,-00.039100000000,  11.36000,
,,,-00.039080000000,  11.36000,
,,,-00.039060000000,  11.28000,
,,,-00.039040000000,  11.28000,
,,,-00.039020000000,  11.20000,
,,,-00.039000000000,  11.12000,
,,,-00.038980000000,  11.04000,
,,,-00.038960000000,  11.04000,
,,,-00.038940000000,  10.96000,
,,,-00.038920000000,  10.88000,
,,,-00.038900000000,  10.80000,
,,,-00.038880000000,  10.72000,
,,,-00.038860000000,  10.64000,
,,,-00.038840000000,  10.48000,
,,,-00.038820000000,  10.48000,
,,,-00.038800000000,  10.40000,
,,,-00.038780000000,  10.40000,
,,,-00.038760000000,  10.40000,
,,,-00.038740000000,  10.32000,
,,,-00.038720000000,  10.32000,
,,,-00.038700000000,  10.40000,
,,,-00.038680000000,  10.40000,
,,,-00.038660000000,  10.48000,
,,,-00.038640000000,  10.48000,
,,,-00.038620000000,  10.64000,
,,,-00.038600000000,  10.80000,
,,,-00.038580000000,  10.88000,
,,,-00.038560000000,  10.96000,
,,,-00.038540000000,  10.96000,
,,,-00.038520000000,  11.12000,
,,,-00.038500000000,  11.20000,
,,,-00.038480000000,  11.28000,
,,,-00.038460000000,  11.36000,
,,,-00.038440000000,  11.36000,
,,,-00.038420000000,  11.44000,
,,,-00.038400000000,  11.44000,
,,,-00.038380000000,  11.44000,
,,,-00.038360000000,  11.44000,
,,,-00.038340000000,  11.36000,
,,,-00.038320000000,  11.36000,
,,,-00.038300000000,  11.36000,
,,,-00.038280000000,  11.36000,
,,,-00.038260000000,  11.52000,
,,,-00.038240000000,  11.60000,
,,,-00.038220000000,  11.68000,
,,,-00.038200000000,  11.76000,
,,,-00.038180000000,  11.84000,
,,,-00.038160000000,  11.84000,
,,,-00.038140000000,  11.84000,
,,,-00.038120000000,  11.84000,
,,,-00.038100000000,  11.84000,
,,,-00.038080000000,  11.92000,
,,,-00.038060000000,  11.84000,
,,,-00.038040000000,  11.84000,
,,,-00.038020000000,  11.76000,
,,,-00.038000000000,  11.76000,
,,,-00.037980000000,  11.68000,
,,,-00.037960000000,  11.60000,
,,,-00.037940000000,  11.52000,
,,,-00.037920000000,  11.44000,
,,,-00.037900000000,  11.44000,
,,,-00.037880000000,  11.36000,
,,,-00.037860000000,  11.36000,
,,,-00.037840000000,  11.28000,
,,,-00.037820000000,  11.28000,
,,,-00.037800000000,  11.28000,
,,,-00.037780000000,  11.28000,
,,,-00.037760000000,  11.28000,
,,,-00.037740000000,  11.36000,
,,,-00.037720000000,  11.36000,
,,,-00.037700000000,  11.44000,
,,,-00.037680000000,  11.60000,
,,,-00.037660000000,  11.60000,
,,,-00.037640000000,  11.68000,
,,,-00.037620000000,  11.76000,
,,,-00.037600000000,  11.92000,
,,,-00.037580000000,  11.92000,
,,,-00.037560000000,  11.92000,
,,,-00.037540000000,  11.92000,
,,,-00.037520000000,  11.92000,
,,,-00.037500000000,  11.92000,
,,,-00.037480000000,  11.92000,
,,,-00.037460000000,  11.92000,
,,,-00.037440000000,  11.92000,
,,,-00.037420000000,  11.92000,
,,,-00.037400000000,  11.92000,
,,,-00.037380000000,  11.92000,
,,,-00.037360000000,  11.84000,
,,,-00.037340000000,  11.84000,
,,,-00.037320000000,  11.84000,
,,,-00.037300000000,  11.76000,
,,,-00.037280000000,  11.76000,
,,,-00.037260000000,  11.68000,
,,,-00.037240000000,  11.60000,
,,,-00.037220000000,  11.60000,
,,,-00.037200000000,  11.60000,
,,,-00.037180000000,  11.60000,
,,,-00.037160000000,  11.52000,
,,,-00.037140000000,  11.44000,
,,,-00.037120000000,  11.44000,
,,,-00.037100000000,  11.36000,
,,,-00.037080000000,  11.28000,
,,,-00.037060000000,  11.28000,
,,,-00.037040000000,  11.20000,
,,,-00.037020000000,  11.20000,
,,,-00.037000000000,  11.12000,
,,,-00.036980000000,  11.20000,
,,,-00.036960000000,  11.20000,
,,,-00.036940000000,  11.28000,
,,,-00.036920000000,  11.36000,
,,,-00.036900000000,  11.36000,
,,,-00.036880000000,  11.52000,
,,,-00.036860000000,  11.52000,
,,,-00.036840000000,  11.60000,
,,,-00.036820000000,  11.60000,
,,,-00.036800000000,  11.76000,
,,,-00.036780000000,  11.76000,
,,,-00.036760000000,  11.76000,
,,,-00.036740000000,  11.76000,
,,,-00.036720000000,  11.76000,
,,,-00.036700000000,  11.68000,
,,,-00.036680000000,  11.68000,
,,,-00.036660000000,  11.60000,
,,,-00.036640000000,  11.60000,
,,,-00.036620000000,  11.44000,
,,,-00.036600000000,  11.44000,
,,,-00.036580000000,  11.36000,
,,,-00.036560000000,  11.28000,
,,,-00.036540000000,  11.12000,
,,,-00.036520000000,  11.12000,
,,,-00.036500000000,  11.04000,
,,,-00.036480000000,  10.96000,
,,,-00.036460000000,  10.96000,
,,,-00.036440000000,  10.88000,
,,,-00.036420000000,  10.96000,
,,,-00.036400000000,  10.88000,
,,,-00.036380000000,  10.96000,
,,,-00.036360000000,  10.96000,
,,,-00.036340000000,  11.04000,
,,,-00.036320000000,  11.12000,
,,,-00.036300000000,  11.20000,
,,,-00.036280000000,  11.28000,
,,,-00.036260000000,  11.36000,
,,,-00.036240000000,  11.52000,
,,,-00.036220000000,  11.60000,
,,,-00.036200000000,  11.68000,
,,,-00.036180000000,  11.76000,
,,,-00.036160000000,  11.76000,
,,,-00.036140000000,  11.84000,
,,,-00.036120000000,  11.84000,
,,,-00.036100000000,  11.84000,
,,,-00.036080000000,  11.92000,
,,,-00.036060000000,  11.92000,
,,,-00.036040000000,  11.92000,
,,,-00.036020000000,  11.92000,
,,,-00.036000000000,  11.84000,
,,,-00.035980000000,  11.92000,
,,,-00.035960000000,  11.84000,
,,,-00.035940000000,  11.84000,
,,,-00.035920000000,  11.84000,
,,,-00.035900000000,  11.84000,
,,,-00.035880000000,  11.76000,
,,,-00.035860000000,  11.68000,
,,,-00.035840000000,  11.68000,
,,,-00.035820000000,  11.60000,
,,,-00.035800000000,  11.52000,
,,,-00.035780000000,  11.52000,
,,,-00.035760000000,  11.44000,
,,,-00.035740000000,  11.36000,
,,,-00.035720000000,  11.28000,
,,,-00.035700000000,  11.20000,
,,,-00.035680000000,  11.12000,
,,,-00.035660000000,  11.12000,
,,,-00.035640000000,  11.04000,
,,,-00.035620000000,  10.96000,
,,,-00.035600000000,  10.96000,
,,,-00.035580000000,  10.88000,
,,,-00.035560000000,  10.88000,
,,,-00.035540000000,  10.80000,
,,,-00.035520000000,  10.88000,
,,,-00.035500000000,  10.80000,
,,,-00.035480000000,  10.80000,
,,,-00.035460000000,  10.80000,
,,,-00.035440000000,  10.72000,
,,,-00.035420000000,  10.72000,
,,,-00.035400000000,  10.72000,
,,,-00.035380000000,  10.72000,
,,,-00.035360000000,  10.80000,
,,,-00.035340000000,  10.80000,
,,,-00.035320000000,  10.72000,
,,,-00.035300000000,  10.80000,
,,,-00.035280000000,  10.88000,
,,,-00.035260000000,  10.88000,
,,,-00.035240000000,  10.88000,
,,,-00.035220000000,  10.96000,
,,,-00.035200000000,  10.96000,
,,,-00.035180000000,  11.04000,
,,,-00.035160000000,  11.12000,
,,,-00.035140000000,  11.20000,
,,,-00.035120000000,  11.20000,
,,,-00.035100000000,  11.28000,
,,,-00.035080000000,  11.28000,
,,,-00.035060000000,  11.36000,
,,,-00.035040000000,  11.44000,
,,,-00.035020000000,  11.52000,
,,,-00.035000000000,  11.60000,
,,,-00.034980000000,  11.60000,
,,,-00.034960000000,  11.68000,
,,,-00.034940000000,  11.68000,
,,,-00.034920000000,  11.76000,
,,,-00.034900000000,  11.84000,
,,,-00.034880000000,  11.84000,
,,,-00.034860000000,  11.92000,
,,,-00.034840000000,  11.92000,
,,,-00.034820000000,  11.92000,
,,,-00.034800000000,  11.92000,
,,,-00.034780000000,  11.92000,
,,,-00.034760000000,  11.92000,
,,,-00.034740000000,  11.92000,
,,,-00.034720000000,  12.00000,
,,,-00.034700000000,  12.00000,
,,,-00.034680000000,  12.00000,
,,,-00.034660000000,  11.92000,
,,,-00.034640000000,  11.92000,
,,,-00.034620000000,  12.00000,
,,,-00.034600000000,  11.92000,
,,,-00.034580000000,  11.92000,
,,,-00.034560000000,  12.00000,
,,,-00.034540000000,  12.00000,
,,,-00.034520000000,  12.00000,
,,,-00.034500000000,  12.00000,
,,,-00.034480000000,  11.92000,
,,,-00.034460000000,  12.00000,
,,,-00.034440000000,  12.00000,
,,,-00.034420000000,  12.00000,
,,,-00.034400000000,  12.00000,
,,,-00.034380000000,  12.00000,
,,,-00.034360000000,  12.00000,
,,,-00.034340000000,  12.00000,
,,,-00.034320000000,  12.00000,
,,,-00.034300000000,  12.00000,
,,,-00.034280000000,  11.92000,
,,,-00.034260000000,  12.00000,
,,,-00.034240000000,  12.00000,
,,,-00.034220000000,  12.00000,
,,,-00.034200000000,  12.00000,
,,,-00.034180000000,  12.00000,
,,,-00.034160000000,  12.00000,
,,,-00.034140000000,  12.00000,
,,,-00.034120000000,  12.00000,
,,,-00.034100000000,  12.00000,
,,,-00.034080000000,  11.92000,
,,,-00.034060000000,  11.92000,
,,,-00.034040000000,  12.00000,
,,,-00.034020000000,  11.92000,
,,,-00.034000000000,  12.00000,
,,,-00.033980000000,  12.00000,
,,,-00.033960000000,  12.00000,
,,,-00.033940000000,  11.92000,
,,,-00.033920000000,  12.00000,
,,,-00.033900000000,  12.00000,
,,,-00.033880000000,  11.92000,
,,,-00.033860000000,  12.00000,
,,,-00.033840000000,  12.00000,
,,,-00.033820000000,  12.08000,
,,,-00.033800000000,  12.00000,
,,,-00.033780000000,  11.92000,
,,,-00.033760000000,  12.00000,
,,,-00.033740000000,  12.00000,
,,,-00.033720000000,  11.92000,
,,,-00.033700000000,  12.00000,
,,,-00.033680000000,  12.00000,
,,,-00.033660000000,  11.92000,
,,,-00.033640000000,  12.00000,
,,,-00.033620000000,  11.92000,
,,,-00.033600000000,  12.00000,
,,,-00.033580000000,  11.92000,
,,,-00.033560000000,  11.92000,
,,,-00.033540000000,  12.00000,
,,,-00.033520000000,  11.92000,
,,,-00.033500000000,  11.92000,
,,,-00.033480000000,  11.92000,
,,,-00.033460000000,  11.92000,
,,,-00.033440000000,  11.92000,
,,,-00.033420000000,  11.92000,
,,,-00.033400000000,  11.92000,
,,,-00.033380000000,  12.00000,
,,,-00.033360000000,  11.92000,
,,,-00.033340000000,  11.92000,
,,,-00.033320000000,  11.92000,
,,,-00.033300000000,  11.92000,
,,,-00.033280000000,  11.92000,
,,,-00.033260000000,  11.92000,
,,,-00.033240000000,  11.92000,
,,,-00.033220000000,  11.92000,
,,,-00.033200000000,  11.92000,
,,,-00.033180000000,  11.92000,
,,,-00.033160000000,  11.92000,
,,,-00.033140000000,  11.92000,
,,,-00.033120000000,  11.84000,
,,,-00.033100000000,  11.84000,
,,,-00.033080000000,  11.92000,
,,,-00.033060000000,  11.84000,
,,,-00.033040000000,  11.84000,
,,,-00.033020000000,  11.84000,
,,,-00.033000000000,  11.84000,
,,,-00.032980000000,  11.76000,
,,,-00.032960000000,  11.68000,
,,,-00.032940000000,  11.60000,
,,,-00.032920000000,  11.60000,
,,,-00.032900000000,  11.52000,
,,,-00.032880000000,  11.52000,
,,,-00.032860000000,  11.44000,
,,,-00.032840000000,  11.36000,
,,,-00.032820000000,  11.36000,
,,,-00.032800000000,  11.28000,
,,,-00.032780000000,  11.28000,
,,,-00.032760000000,  11.20000,
,,,-00.032740000000,  11.12000,
,,,-00.032720000000,  11.12000,
,,,-00.032700000000,  11.12000,
,,,-00.032680000000,  11.04000,
,,,-00.032660000000,  10.96000,
,,,-00.032640000000,  10.96000,
,,,-00.032620000000,  10.96000,
,,,-00.032600000000,  10.88000,
,,,-00.032580000000,  10.80000,
,,,-00.032560000000,  10.88000,
,,,-00.032540000000,  10.80000,
,,,-00.032520000000,  10.80000,
,,,-00.032500000000,  10.80000,
,,,-00.032480000000,  10.80000,
,,,-00.032460000000,  10.80000,
,,,-00.032440000000,  10.72000,
,,,-00.032420000000,  10.72000,
,,,-00.032400000000,  10.64000,
,,,-00.032380000000,  10.64000,
,,,-00.032360000000,  10.64000,
,,,-00.032340000000,  10.64000,
,,,-00.032320000000,  10.64000,
,,,-00.032300000000,  10.64000,
,,,-00.032280000000,  10.64000,
,,,-00.032260000000,  10.64000,
,,,-00.032240000000,  10.80000,
,,,-00.032220000000,  10.80000,
,,,-00.032200000000,  10.88000,
,,,-00.032180000000,  10.96000,
,,,-00.032160000000,  11.12000,
,,,-00.032140000000,  11.28000,
,,,-00.032120000000,  11.36000,
,,,-00.032100000000,  11.52000,
,,,-00.032080000000,  11.60000,
,,,-00.032060000000,  11.76000,
,,,-00.032040000000,  11.76000,
,,,-00.032020000000,  11.92000,
,,,-00.032000000000,  11.92000,
,,,-00.031980000000,  11.92000,
,,,-00.031960000000,  11.84000,
,,,-00.031940000000,  11.92000,
,,,-00.031920000000,  11.92000,
,,,-00.031900000000,  11.92000,
,,,-00.031880000000,  11.92000,
,,,-00.031860000000,  11.84000,
,,,-00.031840000000,  11.92000,
,,,-00.031820000000,  11.92000,
,,,-00.031800000000,  11.92000,
,,,-00.031780000000,  11.92000,
,,,-00.031760000000,  11.92000,
,,,-00.031740000000,  11.84000,
,,,-00.031720000000,  11.84000,
,,,-00.031700000000,  11.84000,
,,,-00.031680000000,  11.76000,
,,,-00.031660000000,  11.76000,
,,,-00.031640000000,  11.68000,
,,,-00.031620000000,  11.60000,
,,,-00.031600000000,  11.52000,
,,,-00.031580000000,  11.44000,
,,,-00.031560000000,  11.36000,
,,,-00.031540000000,  11.36000,
,,,-00.031520000000,  11.36000,
,,,-00.031500000000,  11.28000,
,,,-00.031480000000,  11.20000,
,,,-00.031460000000,  11.28000,
,,,-00.031440000000,  11.20000,
,,,-00.031420000000,  11.20000,
,,,-00.031400000000,  11.20000,
,,,-00.031380000000,  11.28000,
,,,-00.031360000000,  11.20000,
,,,-00.031340000000,  11.28000,
,,,-00.031320000000,  11.28000,
,,,-00.031300000000,  11.36000,
,,,-00.031280000000,  11.36000,
,,,-00.031260000000,  11.36000,
,,,-00.031240000000,  11.44000,
,,,-00.031220000000,  11.52000,
,,,-00.031200000000,  11.60000,
,,,-00.031180000000,  11.68000,
,,,-00.031160000000,  11.76000,
,,,-00.031140000000,  11.84000,
,,,-00.031120000000,  11.84000,
,,,-00.031100000000,  11.84000,
,,,-00.031080000000,  11.84000,
,,,-00.031060000000,  11.84000,
,,,-00.031040000000,  11.92000,
,,,-00.031020000000,  11.92000,
,,,-00.031000000000,  11.84000,
,,,-00.030980000000,  11.84000,
,,,-00.030960000000,  11.84000,
,,,-00.030940000000,  11.76000,
,,,-00.030920000000,  11.76000,
,,,-00.030900000000,  11.76000,
,,,-00.030880000000,  11.76000,
,,,-00.030860000000,  11.68000,
,,,-00.030840000000,  11.68000,
,,,-00.030820000000,  11.60000,
,,,-00.030800000000,  11.60000,
,,,-00.030780000000,  11.52000,
,,,-00.030760000000,  11.44000,
,,,-00.030740000000,  11.44000,
,,,-00.030720000000,  11.44000,
,,,-00.030700000000,  11.28000,
,,,-00.030680000000,  11.36000,
,,,-00.030660000000,  11.28000,
,,,-00.030640000000,  11.28000,
,,,-00.030620000000,  11.28000,
,,,-00.030600000000,  11.28000,
,,,-00.030580000000,  11.28000,
,,,-00.030560000000,  11.28000,
,,,-00.030540000000,  11.28000,
,,,-00.030520000000,  11.28000,
,,,-00.030500000000,  11.28000,
,,,-00.030480000000,  11.28000,
,,,-00.030460000000,  11.28000,
,,,-00.030440000000,  11.36000,
,,,-00.030420000000,  11.36000,
,,,-00.030400000000,  11.36000,
,,,-00.030380000000,  11.36000,
,,,-00.030360000000,  11.44000,
,,,-00.030340000000,  11.44000,
,,,-00.030320000000,  11.44000,
,,,-00.030300000000,  11.52000,
,,,-00.030280000000,  11.60000,
,,,-00.030260000000,  11.52000,
,,,-00.030240000000,  11.60000,
,,,-00.030220000000,  11.60000,
,,,-00.030200000000,  11.60000,
,,,-00.030180000000,  11.60000,
,,,-00.030160000000,  11.60000,
,,,-00.030140000000,  11.52000,
,,,-00.030120000000,  11.52000,
,,,-00.030100000000,  11.52000,
,,,-00.030080000000,  11.52000,
,,,-00.030060000000,  11.44000,
,,,-00.030040000000,  11.44000,
,,,-00.030020000000,  11.36000,
,,,-00.030000000000,  11.44000,
,,,-00.029980000000,  11.36000,
,,,-00.029960000000,  11.36000,
,,,-00.029940000000,  11.28000,
,,,-00.029920000000,  11.28000,
,,,-00.029900000000,  11.20000,
,,,-00.029880000000,  11.12000,
,,,-00.029860000000,  11.20000,
,,,-00.029840000000,  11.12000,
,,,-00.029820000000,  11.12000,
,,,-00.029800000000,  11.12000,
,,,-00.029780000000,  11.04000,
,,,-00.029760000000,  11.04000,
,,,-00.029740000000,  11.04000,
,,,-00.029720000000,  11.04000,
,,,-00.029700000000,  10.96000,
,,,-00.029680000000,  11.04000,
,,,-00.029660000000,  11.04000,
,,,-00.029640000000,  11.04000,
,,,-00.029620000000,  11.12000,
,,,-00.029600000000,  11.12000,
,,,-00.029580000000,  11.12000,
,,,-00.029560000000,  11.28000,
,,,-00.029540000000,  11.28000,
,,,-00.029520000000,  11.28000,
,,,-00.029500000000,  11.36000,
,,,-00.029480000000,  11.28000,
,,,-00.029460000000,  11.36000,
,,,-00.029440000000,  11.36000,
,,,-00.029420000000,  11.36000,
,,,-00.029400000000,  11.36000,
,,,-00.029380000000,  11.44000,
,,,-00.029360000000,  11.44000,
,,,-00.029340000000,  11.36000,
,,,-00.029320000000,  11.36000,
,,,-00.029300000000,  11.36000,
,,,-00.029280000000,  11.36000,
,,,-00.029260000000,  11.36000,
,,,-00.029240000000,  11.28000,
,,,-00.029220000000,  11.28000,
,,,-00.029200000000,  11.28000,
,,,-00.029180000000,  11.20000,
,,,-00.029160000000,  11.12000,
,,,-00.029140000000,  11.12000,
,,,-00.029120000000,  11.04000,
,,,-00.029100000000,  10.96000,
,,,-00.029080000000,  10.96000,
,,,-00.029060000000,  11.04000,
,,,-00.029040000000,  11.04000,
,,,-00.029020000000,  11.12000,
,,,-00.029000000000,  11.12000,
,,,-00.028980000000,  11.20000,
,,,-00.028960000000,  11.20000,
,,,-00.028940000000,  11.20000,
,,,-00.028920000000,  11.20000,
,,,-00.028900000000,  11.20000,
,,,-00.028880000000,  11.20000,
,,,-00.028860000000,  11.20000,
,,,-00.028840000000,  11.12000,
,,,-00.028820000000,  11.12000,
,,,-00.028800000000,  11.12000,
,,,-00.028780000000,  11.04000,
,,,-00.028760000000,  10.96000,
,,,-00.028740000000,  10.88000,
,,,-00.028720000000,  10.88000,
,,,-00.028700000000,  10.80000,
,,,-00.028680000000,  10.72000,
,,,-00.028660000000,  10.64000,
,,,-00.028640000000,  10.64000,
,,,-00.028620000000,  10.64000,
,,,-00.028600000000,  10.56000,
,,,-00.028580000000,  10.48000,
,,,-00.028560000000,  10.48000,
,,,-00.028540000000,  10.48000,
,,,-00.028520000000,  10.48000,
,,,-00.028500000000,  10.48000,
,,,-00.028480000000,  10.48000,
,,,-00.028460000000,  10.48000,
,,,-00.028440000000,  10.48000,
,,,-00.028420000000,  10.40000,
,,,-00.028400000000,  10.48000,
,,,-00.028380000000,  10.48000,
,,,-00.028360000000,  10.56000,
,,,-00.028340000000,  10.56000,
,,,-00.028320000000,  10.56000,
,,,-00.028300000000,  10.64000,
,,,-00.028280000000,  10.64000,
,,,-00.028260000000,  10.72000,
,,,-00.028240000000,  10.64000,
,,,-00.028220000000,  10.72000,
,,,-00.028200000000,  10.80000,
,,,-00.028180000000,  10.72000,
,,,-00.028160000000,  10.64000,
,,,-00.028140000000,  10.72000,
,,,-00.028120000000,  10.64000,
,,,-00.028100000000,  10.64000,
,,,-00.028080000000,  10.64000,
,,,-00.028060000000,  10.64000,
,,,-00.028040000000,  10.56000,
,,,-00.028020000000,  10.56000,
,,,-00.028000000000,  10.48000,
,,,-00.027980000000,  10.48000,
,,,-00.027960000000,  10.48000,
,,,-00.027940000000,  10.40000,
,,,-00.027920000000,  10.40000,
,,,-00.027900000000,  10.32000,
,,,-00.027880000000,  10.48000,
,,,-00.027860000000,  10.40000,
,,,-00.027840000000,  10.32000,
,,,-00.027820000000,  10.40000,
,,,-00.027800000000,  10.32000,
,,,-00.027780000000,  10.32000,
,,,-00.027760000000,  10.32000,
,,,-00.027740000000,  10.32000,
,,,-00.027720000000,  10.32000,
,,,-00.027700000000,  10.32000,
,,,-00.027680000000,  10.24000,
,,,-00.027660000000,  10.24000,
,,,-00.027640000000,  10.24000,
,,,-00.027620000000,  10.16000,
,,,-00.027600000000,  10.16000,
,,,-00.027580000000,  10.16000,
,,,-00.027560000000,  10.00000,
,,,-00.027540000000,  10.08000,
